<?xml version="1.0" encoding="UTF-8"?>
<svg width="100pt" height="100pt" version="1.1" viewBox="0 0 100 100" xmlns="http://www.w3.org/2000/svg">
 <path d="m92.188 11.105h-84.438c-2.1562 0.003906-3.9023 1.75-3.9062 3.9062v48.25c0 0.13672 0.023438 0.27734 0.0625 0.41406v4.2734c0.003906 2.1562 1.75 3.9023 3.9062 3.9062h29.695l-2.0977 6.1055-7.9141-0.003907c-0.85938 0-1.5625 0.69922-1.5625 1.5625v7.8125c0 0.86328 0.70312 1.5625 1.5625 1.5625h45.008c0.85938 0 1.5625-0.69922 1.5625-1.5625v-7.8125c0-0.86328-0.70312-1.5625-1.5625-1.5625h-7.9141l-2.0977-6.1055 29.695 0.003907c2.1562-0.003907 3.9023-1.75 3.9062-3.9062v-52.938c-0.003906-2.1562-1.75-3.9023-3.9062-3.9062zm-0.0625 3.125c0.42969 0 0.78125 0.34766 0.78125 0.78125v46.688h-85.875v-46.688c0-0.43359 0.35156-0.78125 0.78125-0.78125zm-21.184 71.539h-41.883v-4.6875h41.883zm-9.6562-7.8125h-22.57l2.0977-6.1055 18.375 0.003907zm30.902-9.2266h-84.375c-0.42969-0.003907-0.78125-0.35156-0.78125-0.78125v-3.125h85.938v3.125c0 0.42969-0.35156 0.77734-0.78125 0.78125zm-56.074-33.449v9.0078c0 7.6211 6.1797 13.801 13.805 13.801 7.6211 0 13.801-6.1797 13.801-13.801v-8.7305c3.7734-1.2031 6.332-4.707 6.3359-8.6641v-2.2148c0-0.86328-0.69922-1.5625-1.5625-1.5625h-8.5508c-1.8008-2.6172-4.7656-4.1836-7.9414-4.1992h-20.371c-0.86328 0-1.5625 0.69922-1.5625 1.5625v5.8516c0.003906 3.9336 2.3945 7.4766 6.0469 8.9492zm3.6133 0.70703 20.867 0.003907v5.8398h-2.1289c-0.54297-1.707-1.9297-3.0117-3.6641-3.4453-1.7383-0.43359-3.5742 0.0625-4.8555 1.3125-1.2773-1.25-3.1172-1.7461-4.8516-1.3125-1.7383 0.43359-3.125 1.7383-3.6641 3.4453h-2.1914v-5.8672c0.16016 0.011718 0.32422 0.027344 0.48828 0.027344zm15.855 7.4062c0 0.82031-0.49609 1.5664-1.2578 1.8789-0.76172 0.31641-1.6367 0.14062-2.2188-0.44141s-0.75781-1.457-0.44141-2.2188c0.31641-0.76172 1.0586-1.2578 1.8828-1.2578 1.1211 0.003906 2.0352 0.91406 2.0352 2.0391zm-7.1992 0c0 0.82031-0.49609 1.5664-1.2578 1.8789-0.75781 0.31641-1.6367 0.14062-2.2188-0.44141s-0.75391-1.457-0.44141-2.2188c0.31641-0.76172 1.0586-1.2578 1.8828-1.2578 1.125 0.003906 2.0352 0.91406 2.0352 2.0391zm1.5312 11.574 0.003907-0.003906c-5.6328-0.007813-10.293-4.3867-10.648-10.008h2.1602c0.53906 1.7031 1.9258 3.0078 3.6641 3.4414 1.7344 0.4375 3.5742-0.0625 4.8516-1.3125 1.2812 1.25 3.1172 1.75 4.8555 1.3125 1.7344-0.43359 3.1211-1.7383 3.6641-3.4414h2.0977c-0.35547 5.6211-5.0117 10-10.645 10.008zm17.016-28.074c-0.003907 3.2969-2.6719 5.9688-5.9688 5.9727h-15.508v-0.65234l-0.003906-0.003906c0.003906-3.2969 2.6758-5.9648 5.9727-5.9688h15.508zm-33.738-4.8516h18.809c1.2695 0 2.5156 0.37109 3.5781 1.0742h-4.1562c-5.0195 0.003906-9.0898 4.0742-9.0977 9.0938v0.65234l-2.5977 0.003907c-3.6055-0.003907-6.5312-2.9297-6.5352-6.5352zm-17.883 23.129c0.003906-1.4414 0.84375-2.75 2.1523-3.3555v-18.117h3.125v18.117c1.3086 0.60156 2.1484 1.9102 2.1484 3.3555 0 1.4414-0.83984 2.7539-2.1484 3.3555v4.7812h-3.125v-4.7812c-1.3086-0.60547-2.1484-1.9141-2.1523-3.3555zm67.695-13.707h-5.5312v-3.125h5.5312zm0 5.7344h-5.5312v-3.125h5.5312zm0 5.7344h-5.5312v-3.125h5.5312zm0 5.7344h-5.5312v-3.125h5.5312zm0-22.941-5.5312 0.003907v-3.125h5.5312zm0 28.676-5.5312 0.003906v-3.125h5.5312z" fill="#fff"/>
</svg>
