<?xml version="1.0" encoding="UTF-8"?>
<svg width="128pt" height="128pt" version="1.1" viewBox="0 0 128 128" xmlns="http://www.w3.org/2000/svg">
 <g fill="#fff">
  <path d="m7.2109 118.67h14.645c2.9102 0 5.2734-2.3672 5.2734-5.2734v-1.6289l22.094 12.527c4.5312 2.1914 9.8164 2.3359 14.508 0.40234l56.449-23.355c4.7148-1.9492 7.0703-7.4102 5.25-12.152-1.7617-4.7031-6.9453-7.1211-11.441-5.7969l-28.215 7.8633v-3.6797c0-5.707-4.6445-10.352-10.352-10.352h-13.457c-12.633-10.234-27.254-9.6914-34.836-4.207v-3.4844c0-2.9102-2.3672-5.2734-5.2734-5.2734l-14.645 0.003906c-2.9102 0-5.2734 2.3672-5.2734 5.2734v43.859c0 2.9102 2.3672 5.2734 5.2734 5.2734zm52.82-38.016c0.34766 0.29297 0.78906 0.45312 1.2461 0.45312h14.152c3.5703 0 6.4727 2.9023 6.4727 6.4727v4.5859l-26.516 4.3281c-1.0586 0.17188-1.7734 1.168-1.6016 2.2266 0.15625 0.94922 0.97656 1.6289 1.9141 1.6289 0.10156 0 0.20703-0.007812 0.3125-0.023437l28.145-4.5938c0.039062-0.003906 0.070312-0.03125 0.10938-0.039063 0.03125-0.007812 0.066406 0.003907 0.097656-0.003906l30.703-8.5586c2.6328-0.77344 5.7031 0.66016 6.7461 3.4453 1.0781 2.8125-0.31641 6.0391-3.1055 7.1914l-56.449 23.348c-3.6641 1.5117-7.8008 1.3984-11.23-0.25l-23.895-13.555v-28.82c3.4805-5.8555 19.098-9.3906 32.898 2.1641zm-54.215-11.117c0-0.76953 0.625-1.3945 1.3945-1.3945h14.645c0.76953 0 1.3945 0.625 1.3945 1.3945v43.859c0 0.76953-0.625 1.3945-1.3945 1.3945h-14.645c-0.76563 0-1.3945-0.625-1.3945-1.3945z"/>
  <path d="m116.85 17.367-4.9922 4.9805c-0.75781 0.75781-0.76172 1.9844-0.003907 2.7422 0.75391 0.75781 1.9805 0.76172 2.7422 0.003906l1.6953-1.6914v15.914c-3.3906 0.86719-5.9141 3.9219-5.9141 7.582 0 4.3203 3.5234 7.832 7.8516 7.832 2.1797 0 3.9531 1.7812 3.9531 3.9727s-1.7734 3.9727-3.9531 3.9727c-2.1914 0-3.9727-1.7812-3.9727-3.9727 0-1.0703-0.86719-1.9375-1.9375-1.9375-1.0703 0-1.9375 0.86719-1.9375 1.9375 0 3.6562 2.5234 6.7109 5.9141 7.582v1.1719c0 1.0703 0.86719 1.9375 1.9375 1.9375 1.0703 0 1.9375-0.86719 1.9375-1.9375v-1.1758c3.3789-0.87109 5.8945-3.9219 5.8945-7.5781 0-4.332-3.5156-7.8516-7.832-7.8516-2.1914 0-3.9727-1.7734-3.9727-3.9531 0-2.1914 1.7812-3.9727 3.9727-3.9727 2.1797 0 3.9531 1.7812 3.9531 3.9727 0 1.0703 0.86719 1.9375 1.9375 1.9375 1.0703 0 1.9375-0.86719 1.9375-1.9375 0-3.6562-2.5156-6.707-5.8945-7.582v-15.914l1.6875 1.6875c0.75781 0.75781 1.9844 0.75781 2.7422 0 0.75781-0.75781 0.75781-1.9844 0-2.7422l-4.9922-4.9922c-0.68359-0.6875-1.9375-0.81641-2.7539 0.011719z"/>
  <path d="m58.34 42.922c2.1797 0 3.9531 1.7812 3.9531 3.9727 0 1.0703 0.86719 1.9375 1.9375 1.9375 1.0703 0 1.9375-0.86719 1.9375-1.9375 0-3.6562-2.5156-6.707-5.8906-7.582v-15.914l1.6875 1.6875c0.75781 0.75781 1.9844 0.75781 2.7422 0 0.75781-0.75781 0.75781-1.9844 0-2.7422l-4.9922-4.9922c-0.73828-0.73828-1.9805-0.77344-2.7539 0.011719l-4.9922 4.9805c-0.75781 0.75781-0.76172 1.9844-0.003906 2.7422 0.75391 0.75781 1.9805 0.76172 2.7422 0.003906l1.6953-1.6914v15.914c-3.3906 0.86719-5.9141 3.9219-5.9141 7.582 0 4.3203 3.5234 7.832 7.8516 7.832 2.1797 0 3.9531 1.7812 3.9531 3.9727 0 2.1914-1.7734 3.9727-3.9531 3.9727-2.1914 0-3.9727-1.7812-3.9727-3.9727 0-1.0703-0.86719-1.9375-1.9375-1.9375-1.0703 0-1.9375 0.86719-1.9375 1.9375 0 3.6562 2.5234 6.7109 5.9141 7.582v1.1719c0 1.0703 0.86719 1.9375 1.9375 1.9375s1.9375-0.86719 1.9375-1.9375v-1.1758c3.3789-0.87109 5.8906-3.9258 5.8906-7.582 0-4.332-3.5156-7.8516-7.832-7.8516-2.1914 0-3.9727-1.7734-3.9727-3.9531 0-2.1875 1.7812-3.9688 3.9727-3.9688z"/>
  <path d="m88.289 35.516c3.543 0 6.4219 2.8945 6.4219 6.4531 0 1.0703 0.86719 1.9375 1.9375 1.9375 1.0703 0 1.9375-0.86719 1.9375-1.9375 0-5.0312-3.6055-9.2227-8.3633-10.137l0.003906-23.281 3.3555 3.3594c0.75781 0.75781 1.9844 0.75781 2.7422 0 0.75781-0.75781 0.75781-1.9844 0-2.7422l-6.6641-6.6641c-0.67188-0.67969-1.9453-0.8125-2.7578 0.015625l-6.6641 6.6445c-0.75781 0.75781-0.76172 1.9844-0.003906 2.7422s1.9844 0.76172 2.7422 0.003906l3.3672-3.3594v23.277c-4.7695 0.91016-8.3906 5.1055-8.3906 10.137 0 5.6797 4.6367 10.305 10.332 10.305 3.543 0 6.4219 2.8945 6.4219 6.4531s-2.8828 6.4531-6.4219 6.4531c-3.5586 0-6.4531-2.8945-6.4531-6.4531 0-1.0703-0.86719-1.9375-1.9375-1.9375-1.0703 0-1.9375 0.86719-1.9375 1.9375 0 5.0312 3.6211 9.2227 8.3945 10.137v2.2891c0 1.0703 0.86719 1.9375 1.9375 1.9375 1.0703 0 1.9375-0.86719 1.9375-1.9375v-2.2891c4.7539-0.91406 8.3633-5.1055 8.3633-10.137 0-5.6992-4.6211-10.332-10.301-10.332-3.5586 0-6.4531-2.8828-6.4531-6.4258 0-3.5586 2.8945-6.4492 6.4531-6.4492z"/>
  <path d="m14.539 111.88h3.0977c1.0703 0 1.9375-0.86719 1.9375-1.9375s-0.86719-1.9375-1.9375-1.9375l-3.0977-0.003906c-1.0703 0-1.9375 0.86719-1.9375 1.9375-0.003906 1.0742 0.86328 1.9414 1.9375 1.9414z"/>
 </g>
</svg>
