<?xml version="1.0" encoding="UTF-8"?>
<svg width="100pt" height="100pt" version="1.1" viewBox="0 0 100 100" xmlns="http://www.w3.org/2000/svg">
 <path d="m39.844 16.797c0-0.32422 0.26172-0.58594 0.58594-0.58594 0.53125 0 1.0586 0.007812 1.582 0.027343 0.32031 0.011719 0.57422 0.27734 0.56641 0.59766-0.003906 0.32031-0.26562 0.57422-0.58594 0.57422h-0.019532c-0.51172-0.019531-1.0273-0.027344-1.543-0.027344-0.32422 0-0.58594-0.26172-0.58594-0.58594zm6.5156 1c0.96875 0.13672 1.9414 0.30859 2.8906 0.51172h0.003906c0.039063 0.011718 0.078125 0.015625 0.12109 0.015625 0.30078 0 0.55078-0.22656 0.58203-0.52734 0.03125-0.29688-0.16797-0.57031-0.46094-0.63281-0.97656-0.20703-1.9727-0.38672-2.9727-0.52734h0.003906c-0.15625-0.023438-0.31641 0.015625-0.44141 0.10938s-0.20313 0.23438-0.22266 0.39062c-0.023437 0.15234 0.019531 0.30859 0.11328 0.43359 0.089844 0.125 0.23047 0.20703 0.38281 0.22656zm13.891 4.5391c0.85547 0.45703 1.7109 0.95312 2.5391 1.4766h0.003907c0.27344 0.17188 0.63281 0.085938 0.80469-0.1875s0.089844-0.63672-0.18359-0.80859c-0.85156-0.53516-1.7305-1.043-2.6094-1.5156v0.003907c-0.13672-0.074219-0.30078-0.089844-0.44922-0.046876-0.14844 0.046876-0.27344 0.14844-0.34375 0.28516-0.15234 0.28516-0.046875 0.64062 0.23828 0.79297zm20.363 20.938c-0.125-0.29688-0.46484-0.44141-0.76562-0.32031-0.29688 0.12109-0.44141 0.46094-0.32031 0.76172 0.36719 0.90234 0.70703 1.832 1.0117 2.7539h-0.003906c0.078125 0.24219 0.30469 0.40625 0.55859 0.40625 0.0625 0 0.12109-0.011719 0.17969-0.03125 0.14844-0.046875 0.27344-0.15234 0.34375-0.29297 0.070312-0.13672 0.082031-0.29688 0.03125-0.44531-0.30859-0.94922-0.66016-1.9023-1.0352-2.832zm-3.4375-6.7031h-0.003906c-0.17188-0.27344-0.53125-0.35547-0.80469-0.18359-0.27344 0.17188-0.35547 0.53125-0.1875 0.80859 0.52344 0.83203 1.0195 1.6836 1.4727 2.5391v-0.003906c0.15625 0.28516 0.50781 0.39062 0.79297 0.23828 0.28516-0.14844 0.39453-0.50391 0.24219-0.78906-0.46875-0.87891-0.97656-1.7539-1.5156-2.6094zm5.6875 17.535-0.003906 0.003906c0.15625-0.023437 0.29297-0.10547 0.38672-0.23047s0.13281-0.28125 0.11328-0.43359c-0.14062-1-0.32031-2-0.53125-2.9727v0.003906c-0.066406-0.31641-0.37891-0.51953-0.69531-0.45312-0.31641 0.070312-0.51562 0.37891-0.44922 0.69531 0.20312 0.94531 0.375 1.918 0.51562 2.8906 0.039062 0.28906 0.28906 0.50391 0.57812 0.50391 0.027344 0 0.058594 0 0.082031-0.003906zm-29.359-34.648c0.92188 0.30078 1.8477 0.64062 2.7617 1.0117v-0.003906c0.30078 0.12109 0.64062-0.023438 0.76172-0.32422 0.12109-0.29688-0.023438-0.64062-0.32422-0.76172-0.93359-0.37891-1.8906-0.72656-2.8359-1.0391v0.003906c-0.30859-0.10156-0.63672 0.066406-0.73828 0.375-0.10156 0.30469 0.070313 0.63672 0.375 0.73828zm29.652 37.965c-0.32422 0.011719-0.57812 0.28516-0.56641 0.60547 0.019531 0.51172 0.027344 1.0273 0.027344 1.543 0 0.32422 0.26172 0.58594 0.58594 0.58594s0.58594-0.26172 0.58594-0.58594c0-0.53125-0.007812-1.0586-0.027343-1.582 0.003906-0.16016-0.0625-0.3125-0.17578-0.41797-0.11719-0.10937-0.27344-0.16406-0.42969-0.14844zm-4.6406 2.1484c0 10.102-4.0117 19.789-11.156 26.93-7.1406 7.1445-16.828 11.156-26.93 11.156-10.102 0-19.789-4.0117-26.93-11.156-7.1445-7.1406-11.156-16.828-11.156-26.93 0-10.102 4.0117-19.789 11.156-26.93 7.1406-7.1445 16.828-11.156 26.93-11.156 10.098 0.011719 19.777 4.0273 26.918 11.168s11.156 16.82 11.168 26.918zm-17.188-28.012 0.28906 1.2578c0.17969 0.78516 0.015624 1.6094-0.44531 2.2734l-1.4922 2.1367v-0.003906c-0.29297 0.41797-0.76953 0.66797-1.2812 0.66797h-1.707l-0.80469 2.6367 1.4492 1.3164 3.25-1.1133c0.14453-0.050781 0.26172-0.16016 0.31641-0.30469l0.83984-2.1875c0.21875-0.56641 0.74219-0.95703 1.3477-1 0.60547-0.042969 1.1836 0.26953 1.4766 0.80078l1.1445 2.0625c0.14844 0.26172 0.44531 0.40234 0.73828 0.34766 1.0703-0.20312 2.1719-0.19531 3.2422 0.023437-2.2461-3.4336-5.0781-6.4531-8.3633-8.9141zm-25.094-4.418 0.15625-2.2891c-1.4648 0.16797-2.918 0.42969-4.3516 0.78125l2.5898 2.7617 1.418 0.39453 0.003906 0.003907c0.12891 0.035156 0.26562-0.003907 0.35938-0.10156s0.12891-0.23828 0.085938-0.36328l-0.19531-0.60547 0.003907-0.003906c-0.058594-0.1875-0.082032-0.38281-0.070313-0.57812zm-24.508 41.555c-0.007812-0.015624-0.015624-0.03125-0.019531-0.042968l-1.3633-3.3125-2.5469-1.5078c-0.17969-0.10547-0.33984-0.25-0.46484-0.42188l-1.8281-2.5078c0.23438 6.3594 2.2109 12.531 5.7148 17.844l-0.80469-1.4219c-0.48047-0.85156-0.71094-1.8203-0.65625-2.793l0.15234-2.8242v-0.003906c0.058594-1.0586 0.57422-2.0391 1.4102-2.6914zm10.105 20.457 0.81641-2.8633c0.078124-0.26172 0.21875-0.5 0.41406-0.69141l4.2422-4.1211 0.10547-2.6328c0.011719-0.30469 0.11328-0.60156 0.29297-0.85156l3.3867-4.6992c0.058594-0.074219 0.0625-0.17578 0.019531-0.25781l-1.1992-2.3281c-0.042968-0.082031-0.125-0.13281-0.21875-0.13281h-3.1953c-0.375 0-0.74219-0.13672-1.0234-0.38672l-2.5547-2.2188h-3.9258c-1.125 0-2.1992-0.46875-2.9727-1.2852l-3.2891-3.5039c-0.17969-0.19141-0.30859-0.42578-0.375-0.67578l-1.3242-5.0977v-0.003906c-0.42969-1.6484 0.24609-3.3867 1.6758-4.3164l2.6992-1.7578v0.003906c1.2695-0.82031 2.8945-0.85156 4.1953-0.078125l0.85938 0.51562c0.15234 0.09375 0.32422 0.16016 0.50391 0.19531l-0.66016-1.2188v-0.003906c-0.23438-0.43359-0.25-0.95703-0.039063-1.4062l1.8789-3.9961-1.1289-7.3398c-0.082031-0.52734 0.10938-1.0547 0.50391-1.4062l1.5391-1.3672-3.1094-3.9648 0.003906-0.003907c-8.0234 5.8008-13.215 14.73-14.281 24.574l3.9961 5.4766 2.7188 1.6055h-0.003907c0.29297 0.17188 0.52344 0.43359 0.65234 0.75l1.5039 3.6523c0.74219 1.207 0.46094 2.7812-0.65625 3.6602l-0.64453 0.50391c-0.12109 0.09375-0.19922 0.23828-0.20703 0.39453l-0.15234 2.8242c-0.019531 0.37891 0.066406 0.75391 0.25391 1.0859l1.1836 2.0938c0.1875 0.32812 0.24609 0.71875 0.16797 1.0938l-0.68359 3.2148c2.3086 2.7148 5.0156 5.0625 8.0312 6.9648zm44.105-5.7109-1.5234-2.3633c-0.66016-1.0156-0.90625-2.2461-0.6875-3.4375l0.50391-2.8047c0.074219-0.41406 0.042969-0.83984-0.089844-1.2422l-0.32812-0.98047c-0.25-0.74609-0.30859-1.5391-0.17969-2.3164l0.48828-2.8398v0.003907c0.015625-0.09375-0.011719-0.19141-0.078125-0.26172l-1.5625-1.6289c-0.078125-0.082031-0.19531-0.11328-0.30469-0.082031l-2.7773 0.80859v0.003906c-2.0625 0.59375-4.2812-0.16406-5.5469-1.8984l-2.1719-2.9961c-0.66406-0.91406-0.94922-2.0469-0.80078-3.168l0.63281-4.707 0.003906 0.003906c0.23047-1.8008 1.5508-3.2656 3.3164-3.6875l1.7461-0.42578c0.16016-0.039063 0.28516-0.16406 0.32422-0.32422 0.36719-1.5391 1.6055-2.7188 3.1641-3.0039l3.4141-0.62891c1.4258-0.26172 2.8828 0.26953 3.8047 1.3906 0.20312 0.24609 0.51953 0.36328 0.83203 0.30469l4.6484-0.86719c-0.21094-0.50781-0.42969-1.0117-0.66406-1.5078l-1.9102-0.90234c-0.94141-0.44922-1.9961-0.58594-3.0195-0.39062-1.3711 0.29297-2.7969-0.17188-3.7305-1.2148-0.44531 0.65625-1.0938 1.1523-1.8477 1.4102l-3.418 1.168v0.003906c-0.97266 0.33203-2.0508 0.10547-2.8125-0.58594l-1.7227-1.5625c-0.80469-0.73828-1.1133-1.8711-0.80078-2.9141l0.94141-3.0859h0.003906c0.34766-1.1602 1.418-1.9531 2.625-1.9453h1.1719l0.95703-1.3711-0.98437-4.2852 0.007812 0.003906c-5.2266-2.957-11.129-4.5078-17.133-4.5039-0.30078 0-0.59375 0.015625-0.89453 0.023437l-0.16406 2.4219 0.10547 0.32422v0.003906c0.38672 1.2188 0.074219 2.5586-0.8125 3.4805-0.89062 0.92188-2.2148 1.2852-3.4531 0.9375l-1.8398-0.51172c-0.27734-0.074218-0.52734-0.22656-0.72266-0.4375l-3.9492-4.2148v0.003906c-2.1328 0.76172-4.1836 1.7305-6.1289 2.8906l3.0391 3.875-0.003906 0.003906c0.96875 1.2383 0.80859 3.0117-0.36328 4.0547l-1.0078 0.89453 1.0742 6.9727v0.003907c0.046875 0.30469 0 0.62109-0.13281 0.90234l-1.7461 3.7109 0.65625 1.2109c0.38672 0.71875 0.42187 1.5742 0.09375 2.3203-0.32813 0.74609-0.98047 1.2969-1.7734 1.4961-1.207 0.30469-2.4883 0.11719-3.5547-0.52734l-0.85547-0.51562c-0.27344-0.16406-0.62109-0.16016-0.88672 0.015625l-2.6992 1.7578c-0.30469 0.19531-0.44531 0.5625-0.35547 0.91406l1.2227 4.7109 3.0195 3.2109c0.17969 0.19141 0.43359 0.30078 0.69922 0.30078h4.5078c0.375 0 0.74219 0.13672 1.0234 0.38281l2.5547 2.2227h2.6094c1.2656-0.003907 2.4219 0.70312 2.9961 1.8281l1.1992 2.3281c0.58594 1.1289 0.48438 2.4883-0.25781 3.5156l-3.1133 4.3164-0.11328 2.7852c-0.015625 0.40234-0.18359 0.78125-0.47266 1.0586l-4.3867 4.2656-0.91406 3.1914v0.003907c6.7461 3.4297 14.426 4.5742 21.875 3.2578 7.4531-1.3164 14.273-5.0234 19.434-10.559zm9.4531-23.871c0.003906-3.4922-0.51953-6.9648-1.5508-10.301l-5.1484 0.96094c-1.4297 0.26953-2.8945-0.26172-3.8164-1.3867-0.20312-0.24219-0.51953-0.35938-0.83203-0.30469l-3.4141 0.62891c-0.33594 0.0625-0.60938 0.32031-0.6875 0.65625-0.30859 1.3008-1.3203 2.3203-2.625 2.6328l-1.7461 0.42578c-0.50781 0.125-0.88672 0.55078-0.96094 1.0664l-0.63281 4.7031v0.003906c-0.042968 0.32031 0.039063 0.64844 0.23438 0.91406l2.1719 2.9961c0.48828 0.67188 1.3438 0.96484 2.1406 0.73438l2.7773-0.80859v-0.003907c1.2266-0.35938 2.5547-0.003906 3.4375 0.91797l1.5586 1.6289c0.75 0.78516 1.0859 1.8789 0.90625 2.9531l-0.48828 2.8359c-0.046875 0.26562-0.023438 0.54297 0.0625 0.80078l0.32812 0.98047c0.29688 0.89844 0.36328 1.8555 0.19922 2.7852l-0.50391 2.8047c-0.074219 0.41016 0.011719 0.83594 0.23828 1.1875l1.0156 1.5742c4.7617-6.1133 7.3398-13.641 7.3359-21.387zm-15.168 20.336h-3.125c-0.32422 0-0.58594 0.26172-0.58594 0.58594 0 0.32422 0.26172 0.58594 0.58594 0.58594h3.125c0.32422 0 0.58594-0.26172 0.58594-0.58594 0-0.32422-0.26172-0.58594-0.58594-0.58594zm-7.8125 0h-3.125c-0.32422 0-0.58594 0.26172-0.58594 0.58594 0 0.32422 0.26172 0.58594 0.58594 0.58594h3.125c0.32422 0 0.58594-0.26172 0.58594-0.58594 0-0.32422-0.26172-0.58594-0.58594-0.58594zm-10.938 1.1719h3.125c0.32422 0 0.58594-0.26172 0.58594-0.58594 0-0.32422-0.26172-0.58594-0.58594-0.58594h-3.125c-0.32422 0-0.58594 0.26172-0.58594 0.58594 0 0.32422 0.26172 0.58594 0.58594 0.58594zm-4.6562 5.0781h-3.125c-0.32422 0-0.58594 0.26172-0.58594 0.58594 0 0.32422 0.26172 0.58594 0.58594 0.58594h3.125c0.32422 0 0.58594-0.26172 0.58594-0.58594 0-0.32422-0.26172-0.58594-0.58594-0.58594zm7.8125 0h-3.125c-0.32422 0-0.58594 0.26172-0.58594 0.58594 0 0.32422 0.26172 0.58594 0.58594 0.58594h3.125c0.32422 0 0.58594-0.26172 0.58594-0.58594 0-0.32422-0.26172-0.58594-0.58594-0.58594zm-14.281-30.949h-3.125c-0.32422 0-0.58594 0.26562-0.58594 0.58594 0 0.32422 0.26172 0.58594 0.58594 0.58594h3.125c0.32422 0 0.58594-0.26172 0.58594-0.58594 0-0.32031-0.26172-0.58594-0.58594-0.58594zm7.8125 0h-3.125c-0.32422 0-0.58594 0.26562-0.58594 0.58594 0 0.32422 0.26172 0.58594 0.58594 0.58594h3.125c0.32422 0 0.58594-0.26172 0.58594-0.58594 0-0.32031-0.26172-0.58594-0.58594-0.58594zm14.348 18.449h-3.125 0.003907c-0.32422 0-0.58594 0.26172-0.58594 0.58594 0 0.32422 0.26172 0.58594 0.58594 0.58594h3.125c0.32031 0 0.58594-0.26172 0.58594-0.58594 0-0.32422-0.26562-0.58594-0.58594-0.58594zm-7.8125 0h-3.125 0.003907c-0.32422 0-0.58594 0.26172-0.58594 0.58594 0 0.32422 0.26172 0.58594 0.58594 0.58594h3.125c0.32031 0 0.58594-0.26172 0.58594-0.58594 0-0.32422-0.26562-0.58594-0.58594-0.58594zm1.5586-40.648h-3.125c-0.32422 0-0.58594 0.26172-0.58594 0.58594s0.26172 0.58594 0.58594 0.58594h3.125c0.32031 0 0.58594-0.26172 0.58594-0.58594s-0.26562-0.58594-0.58594-0.58594zm-0.042968 6.25h-3.125c-0.32422 0-0.58594 0.26172-0.58594 0.58594s0.26172 0.58594 0.58594 0.58594h3.125c0.32422 0 0.58594-0.26172 0.58594-0.58594s-0.26172-0.58594-0.58594-0.58594zm-7.8125 0h-3.125c-0.32422 0-0.58594 0.26172-0.58594 0.58594s0.26172 0.58594 0.58594 0.58594h3.125c0.32422 0 0.58594-0.26172 0.58594-0.58594s-0.26172-0.58594-0.58594-0.58594zm59.18-14.852c0.21094 0.64453-0.019531 1.3477-0.56641 1.7461l-3.8008 2.7617-1.4531 4.4727c-0.21094 0.64453-0.80859 1.0781-1.4883 1.0781h-4.6992l-3.8047 2.7617c-0.54688 0.39844-1.2891 0.39844-1.8359 0l-3.8008-2.7617h-4.6992c-0.67969 0-1.2773-0.43359-1.4883-1.0781l-1.4531-4.4727-3.8008-2.7617c-0.54688-0.39844-0.77734-1.1016-0.57031-1.7461l1.4531-4.4727-1.4531-4.4688c-0.20703-0.64453 0.023437-1.3477 0.57031-1.7461l3.8008-2.7656 1.4531-4.4688c0.21094-0.64453 0.80859-1.0781 1.4883-1.0781h4.6992l3.8008-2.7617v-0.003906c0.54687-0.39844 1.2891-0.39844 1.8359 0l3.8047 2.7656h4.6992c0.67969 0 1.2773 0.43359 1.4883 1.0781l1.4531 4.4727 3.8008 2.7617c0.54688 0.39844 0.77734 1.1016 0.56641 1.7461l-1.4531 4.4688zm-4.582-4.9531 1.2578-3.875-3.293-2.3945c-0.26563-0.19141-0.46484-0.46484-0.56641-0.78125l-1.2578-3.8711h-4.0742c-0.32812 0-0.65234-0.10547-0.91797-0.30078l-3.2969-2.3945-3.293 2.3945c-0.26563 0.19531-0.58984 0.30078-0.91797 0.30078h-4.0742l-1.2578 3.875v-0.003906c-0.10156 0.31641-0.30078 0.58984-0.56641 0.78125l-3.2969 2.3945 1.2578 3.875h0.003906c0.10156 0.3125 0.10156 0.65234 0 0.96484l-1.2578 3.875 3.293 2.3945v-0.003906c0.26562 0.19531 0.46484 0.46875 0.56641 0.78125l1.2578 3.875h4.0742c0.32812 0 0.65234 0.10547 0.91797 0.30078l3.293 2.3945 3.2969-2.3945c0.26562-0.19531 0.58984-0.30078 0.91797-0.30078h4.0742l1.2578-3.875c0.10156-0.3125 0.30078-0.58594 0.56641-0.78125l3.293-2.3945-1.2578-3.875v0.003907c-0.10156-0.3125-0.10156-0.65234 0-0.96484zm-2.2969 0.48438 0.003906-0.003906c0 3.9883-2.4023 7.5781-6.082 9.1055-3.6836 1.5234-7.9219 0.67969-10.738-2.1367-2.8203-2.8164-3.6602-7.0547-2.1367-10.738 1.5234-3.6797 5.1172-6.082 9.1016-6.082 5.4414 0.003907 9.8477 4.4141 9.8555 9.8516zm-3.125 0 0.003906-0.003906c0-2.7188-1.6406-5.1719-4.1523-6.2148-2.5156-1.043-5.4102-0.46484-7.332 1.457-1.9258 1.9258-2.5 4.8203-1.4609 7.332 1.043 2.5156 3.4961 4.1562 6.2148 4.1562 3.7148-0.003906 6.7266-3.0156 6.7305-6.7305z" fill="#FFFFFF
"/>
</svg>