<svg xmlns="http://www.w3.org/2000/svg" width="100" height="100" viewBox="0 0 100 100">
  <g id="Group_520" data-name="Group 520" transform="translate(-393 -800)">
    <g id="Rectangle_20" data-name="Rectangle 20" transform="translate(393 800)" fill="rgba(1,14,18,0)" stroke="#87bdd9" stroke-width="2">
      <rect width="100" height="100" rx="10" stroke="none"/>
      <rect x="1" y="1" width="98" height="98" rx="9" fill="none"/>
    </g>
    <g id="noun-passport-116363" transform="translate(413.048 821.916)">
      <path id="Path_4122" data-name="Path 4122" d="M2.492,9.644H0C0,7.027,1.62,4.659,3.863,4.161L31.029-1.821a3.427,3.427,0,0,1,2.866.623,4.437,4.437,0,0,1,1.5,3.614V6.653H32.9V2.416A1.966,1.966,0,0,0,32.275.8a.7.7,0,0,0-.748-.125L4.361,6.653A3.13,3.13,0,0,0,2.492,9.644Z" fill="#87bdd9"/>
      <path id="Path_4123" data-name="Path 4123" d="M36.263,192.926H5.234A5.115,5.115,0,0,1,0,187.683V145.243A5.115,5.115,0,0,1,5.234,140H36.263a5.115,5.115,0,0,1,5.234,5.243v42.441A5.27,5.27,0,0,1,36.263,192.926ZM5.234,142.5a2.619,2.619,0,0,0-2.741,2.746v42.441a2.619,2.619,0,0,0,2.741,2.746H36.263A2.768,2.768,0,0,0,39,187.683V145.243a2.619,2.619,0,0,0-2.741-2.746Z" transform="translate(0 -134.842)" fill="#87bdd9"/>
      <path id="Path_4124" data-name="Path 4124" d="M803.31,306H782.5V265h20.81Zm-18.318-2.492h15.826V267.492H784.992Z" transform="translate(-743.406 -253.521)" fill="#87bdd9"/>
      <path id="Path_4125" data-name="Path 4125" d="M145.834,404.167a13.334,13.334,0,1,1,13.334-13.334A13.349,13.349,0,0,1,145.834,404.167Zm0-24.175a10.841,10.841,0,1,0,10.841,10.841A10.849,10.849,0,0,0,145.834,379.992Z" transform="translate(-125.895 -360.453)" fill="#87bdd9"/>
      <path id="Path_4126" data-name="Path 4126" d="M262.228,404.167c-4.112,0-7.228-5.857-7.228-13.334s3.115-13.334,7.228-13.334,7.228,5.857,7.228,13.334S266.34,404.167,262.228,404.167Zm0-24.175c-2.243,0-4.735,4.486-4.735,10.841s2.492,10.841,4.735,10.841,4.735-4.486,4.735-10.841S264.471,379.992,262.228,379.992Z" transform="translate(-242.264 -360.453)" fill="#87bdd9"/>
      <path id="Path_4127" data-name="Path 4127" d="M375,402.5h2.492v24.175H375Z" transform="translate(-356.279 -384.207)" fill="#87bdd9"/>
      <path id="Path_4128" data-name="Path 4128" d="M160,620h24.05v2.492H160Z" transform="translate(-152.025 -590.868)" fill="#87bdd9"/>
      <path id="Path_4129" data-name="Path 4129" d="M807.5,412.5h11.589v2.492H807.5Z" transform="translate(-767.16 -393.727)" fill="#87bdd9"/>
      <path id="Path_4130" data-name="Path 4130" d="M807.5,527.5h11.589v2.492H807.5Z" transform="translate(-767.16 -502.986)" fill="#87bdd9"/>
      <path id="Path_4131" data-name="Path 4131" d="M807.5,892.5h11.589v2.492H807.5Z" transform="translate(-767.16 -849.764)" fill="#87bdd9"/>
    </g>
  </g>
</svg>
