<?xml version="1.0" encoding="UTF-8"?>
<svg width="512pt" height="512pt" version="1.1" viewBox="0 0 512 512" xmlns="http://www.w3.org/2000/svg">
 <g fill="#fff">
  <path d="m329.36 341.39c-5.7539-2.8906-12.168-4.1953-18.594-3.7852-3.4961 0.33984-6.918 1.2383-10.133 2.6641l32.414 13.09h0.003906c-9.5703 11.402-18.316 23.473-26.176 36.117-5.6211 8.8242-10.164 18.289-13.539 28.191-3.0078 7.8945-4.1758 16.375-3.4219 24.789 15.465-3.457 31.828-20.48 42.398-40.852 7.5078-12.996 11.129-27.871 10.434-42.859-1.3516-7.6289-6.3516-14.109-13.387-17.355z"/>
  <path d="m110.63 177.43v52.426l179.88 64.117h0.10547c13.762 0.019532 27.512-0.76562 41.184-2.3477 35.062-5.1211 57.77-14.934 57.77-25.258v-86.398l-110.42 37.418z"/>
  <path d="m238.08 68.906-238.08 65.227 110.63 26.156 167.73 39.742 111.2-37.621 122.43-41.523z"/>
  <path d="m274.13 424.19c0.22266-1.0664 0.44922-2.3359 0.66016-3.668 0.21484-1.332 0.67188-2.8906 1.2266-4.4492l0.33984-1.0039h0.003906c4.0742-12.012 9.5273-23.516 16.254-34.27 4.0234-6.7773 8.4844-13.285 13.355-19.477 0.17188-0.21094 0.32031-0.4375 0.44922-0.67188l-21.93-8.7891c-5.1602 5.4141-9.543 11.516-13.027 18.133-4.7852 8.2109-8.7617 16.867-11.879 25.844l-253.91-113.17-1.5586 6.793c-2.1328 10.465-1.5586 21.59 5.2383 24.375l267.8 127.5c-3.6797-2.7812-4.5664-8.9062-3.0195-17.141z"/>
  <path d="m0.48047 262.07 0.019531-0.042968-0.0625-0.03125z"/>
  <path d="m256.62 362.32c15.125-29.129 41.676-45.867 62.113-40.438l-0.80078-0.29688-279.73-99.863c-10.398-4.4258-25.301 7.3477-33.504 26.668l-0.003906-0.003907c-1.8828 4.3867-3.2891 8.9648-4.1914 13.656l251.01 111.85c1.457-3.9609 3.1641-7.8281 5.1094-11.57z"/>
  <path d="m482.73 188.22v-39.73l-16.703 5.5664v34.133c-3.5508 1.582-6.5664 4.1562-8.6797 7.418-2.1133 3.2617-3.2305 7.0664-3.2266 10.949v14.133c0 7.2188 3.8516 13.891 10.102 17.496 6.2539 3.6094 13.953 3.6094 20.203 0 6.25-3.6055 10.102-10.277 10.102-17.496v-14.098c0.03125-3.8789-1.0703-7.6797-3.1641-10.941-2.0977-3.2617-5.0938-5.8438-8.6328-7.4297z"/>
 </g>
</svg>
