<?xml version="1.0" encoding="utf-8"?>
<!-- Generator: Adobe Illustrator 21.1.0, SVG Export Plug-In . SVG Version: 6.00 Build 0)  -->
<svg version="1.1" id="Layer_1" xmlns="http://www.w3.org/2000/svg" xmlns:xlink="http://www.w3.org/1999/xlink" x="0px" y="0px"
	 viewBox="0 0 100 100" style="enable-background:new 0 0 100 100;" xml:space="preserve">
<style type="text/css">
	.st0{fill:#636363;}
	.st1{fill:#00BCD4;}
</style>
<g id="FL_01_0_Layer0_0_FILL">
	<path class="st0" d="M14.8,35.2c0.7-0.7,1.1-1.6,1.1-2.7s-0.4-2-1.1-2.7c-0.7-0.7-1.6-1.1-2.7-1.1s-2,0.4-2.7,1.1s-1.1,1.6-1.1,2.7
		c0,1.1,0.4,2,1.1,2.7c0.7,0.7,1.5,1,2.4,1.1c0.1,0,0.2,0,0.3,0C13.2,36.3,14.1,35.9,14.8,35.2 M29.1,50.6c0-0.8-0.3-1.4-0.8-2
		c-0.5-0.5-1.2-0.8-2-0.8s-1.4,0.3-2,0.8c-0.5,0.5-0.8,1.2-0.8,2s0.3,1.4,0.8,2c0.5,0.5,1.2,0.8,2,0.8s1.4-0.3,2-0.8
		C28.8,52,29.1,51.4,29.1,50.6 M27.1,70.1c0,0.3,0.1,0.6,0.4,0.8c0.2,0.2,0.5,0.4,0.8,0.4s0.6-0.1,0.8-0.4c0.2-0.2,0.4-0.5,0.4-0.8
		c0-0.1,0-0.1,0-0.2V65h-2.4L27.1,70.1L27.1,70.1 M25.5,65.1h-2.4v5l0,0c0,0.3,0.1,0.6,0.4,0.8c0.2,0.2,0.5,0.4,0.8,0.4
		s0.6-0.1,0.8-0.4c0.2-0.2,0.4-0.5,0.4-0.8c0-0.1,0-0.1,0-0.2L25.5,65.1 M20.2,52.8L20.2,52.8l-0.7-1.1l0.2,1L20.2,52.8 M29.7,57.8
		l3-4.9l0.6-1l-0.8-0.6l-0.8-0.6c-2,3.3-3.8,4.7-5.6,4.4c-1.3-0.3-3-1.7-4.9-4.3l-0.9,0.6v1.5l3.2,5.2l-2.1,7h1.7h2.4h1.6h2.4h1.9
		L29.7,57.8 M6.6,42.2c0.3-0.7,0.7-0.7,0.9,0v26.7c0.1,1.2,0.7,1.8,1.9,1.7c1.1-0.1,1.8-0.5,2-1.4c0-0.1,0-0.1,0-0.2V53.9h1.1V69
		c0.1,1,0.8,1.5,2,1.6s1.8-0.5,1.9-1.7V42.2c0.3-0.7,0.6-0.7,0.9,0l0.6,10.5l1.9,0.2l-0.2-1l0.7,1.1v-1.5V42c0-2.9-1.4-4.4-4-4.6
		H7.7c-2.7,0.2-4,1.8-4,4.6v14.4l-3.2,14h1.9l2.8-14.1L6.6,42.2 M37.3,44.4c0.7-0.7,1-0.7,1.1,0.1l-4,14h4.2v-2.4v2.4v10.3
		c0,1.2,0.6,1.7,1.6,1.6s1.6-0.6,1.7-1.5V58.6v-2.4v2.4h0.9v-2.4v2.4V69c0.1,0.9,0.7,1.4,1.7,1.5s1.5-0.4,1.6-1.6V58.6v-2.4v2.4h4.1
		L46,44.2c0.1-0.7,0.4-0.9,1-0.5l2.7,9.2c0.5,0.5,1,0.7,1.7,0.5s1-0.7,1.1-1.6L49,41c-0.7-1.4-1.7-2-2.9-2h-7.8
		c-1.4,0.3-2.4,1.1-2.8,2.3l-2.9,10l0.8,0.6l-0.6,1c1.3,0.7,2.1,0.4,2.6-0.8L37.3,44.4 M42.4,38c1.1,0,2-0.4,2.7-1.1
		c0.7-0.7,1.1-1.6,1.1-2.7s-0.4-2-1.1-2.7c-0.7-0.7-1.6-1.1-2.7-1.1c-1.1,0-2,0.4-2.7,1.1s-1.1,1.6-1.1,2.7s0.4,2,1.1,2.7
		c0.7,0.7,1.5,1,2.4,1.1C42.2,38,42.3,38,42.4,38 M57.9,44.4c0.7-0.7,1-0.7,1.1,0.1l-4,14h4.2v-2.4v2.4v10.3c0,1.2,0.6,1.7,1.6,1.6
		s1.6-0.6,1.7-1.5V58.6v-2.4v2.4h0.9v-2.4v2.4V69c0.1,1,0.7,1.5,1.6,1.5c1.1,0,1.6-0.5,1.7-1.6V58.6v-2.4v2.4h4.1l-4.2-14.3
		c0.1-0.7,0.4-0.9,1-0.5l2.7,9.2c0.5,0.5,1,0.7,1.7,0.5s1-0.7,1.1-1.6L69.5,41c-0.7-1.4-1.7-2-2.9-2h-7.8c-1.4,0.3-2.4,1.1-2.8,2.3
		l-2.9,10c-0.2,0.9-0.1,1.4,0.2,1.6c1.3,0.7,2.1,0.4,2.6-0.8L57.9,44.4 M65.4,36.7c0.7-0.7,1-1.5,1-2.5s-0.3-1.8-1-2.5s-1.5-1-2.5-1
		s-1.8,0.3-2.5,1s-1,1.5-1,2.5s0.3,1.8,1,2.5c0.6,0.6,1.3,0.9,2.2,1c0.1,0,0.2,0,0.3,0C63.9,37.7,64.7,37.4,65.4,36.7 M84.1,61.1
		l-2-5.4c-0.2-0.5-0.6-0.8-1-1s-0.8-0.3-1.3-0.3H75c-1.1,0.2-1.9,0.9-2.4,2L70.5,62c-0.1,0.7,0,1.2,0.6,1.4c0.5,0.2,1,0.1,1.4-0.5
		l1.5-4.6c0.1-0.1,0.2-0.1,0.3-0.1c0.1,0,0.2,0,0.3,0.1V70c0,0.8,0.4,1.1,1.2,1.1c0.8,0,1.1-0.4,1.2-1.1v-5.8c0.3-0.4,0.6-0.4,0.9,0
		v5.9c0,0.7,0.4,1,1.2,1c0.8,0,1.2-0.3,1.3-1V57.9c0.2-0.2,0.4-0.2,0.7,0l1.3,4.1c0.4,0.7,0.9,0.9,1.5,0.6
		C84.2,62.4,84.4,61.9,84.1,61.1 M80.2,50.5c-0.1-0.7-0.3-1.3-0.8-1.8s-1.2-0.8-2-0.8s-1.5,0.3-2,0.8s-0.8,1.1-0.8,1.8
		c0,0.1,0,0.1,0,0.2c0,0.8,0.3,1.5,0.8,2c0.6,0.6,1.2,0.8,2,0.8s1.5-0.3,2-0.8c0.6-0.5,0.8-1.2,0.8-2C80.2,50.6,80.2,50.5,80.2,50.5
		 M94.6,32.5c0-1-0.4-1.9-1.1-2.6s-1.6-1.1-2.6-1.1s-1.9,0.4-2.6,1.1s-1.1,1.6-1.1,2.6s0.4,1.9,1.1,2.6c0.6,0.6,1.4,1,2.3,1.1
		c0.1,0,0.2,0,0.3,0c1,0,1.9-0.4,2.6-1.1C94.3,34.4,94.6,33.5,94.6,32.5 M95.6,42.2c0.3-0.7,0.6-0.7,0.9,0v10.6h3v-11
		c0-2.9-1.4-4.4-4-4.6h-4.3h-4.6c-2.8,0.2-4.3,1.8-4.3,4.6v10.9h3.2V42.1c0.4-0.7,0.7-0.7,1,0v26.7c0.1,1.2,0.7,1.8,2,1.7
		c1.3-0.1,2-0.6,2.1-1.6v-15h0.7h0.6V69c0.1,1,0.8,1.5,2,1.6s1.8-0.5,1.9-1.7V42.2H95.6z"/>
</g>
<g id="FL_01_0_Layer0_0_FILL_1_">
	<path class="st1" d="M-11.8-180.1c0.7-0.7,1.1-1.6,1.1-2.7c0-1.1-0.4-2-1.1-2.7c-0.7-0.7-1.6-1.1-2.7-1.1s-2,0.4-2.7,1.1
		c-0.7,0.7-1.1,1.6-1.1,2.7c0,1.1,0.4,2,1.1,2.7c0.7,0.7,1.5,1,2.4,1.1c0.1,0,0.2,0,0.3,0C-13.4-179-12.5-179.4-11.8-180.1
		 M2.5-164.7c0-0.8-0.3-1.4-0.8-2c-0.5-0.5-1.2-0.8-2-0.8s-1.4,0.3-2,0.8c-0.5,0.5-0.8,1.2-0.8,2s0.3,1.4,0.8,2
		c0.5,0.5,1.2,0.8,2,0.8s1.4-0.3,2-0.8C2.2-163.3,2.5-163.9,2.5-164.7 M0.5-145.2c0,0.3,0.1,0.6,0.4,0.8c0.2,0.2,0.5,0.4,0.8,0.4
		s0.6-0.1,0.8-0.4c0.2-0.2,0.4-0.5,0.4-0.8c0-0.1,0-0.1,0-0.2v-4.9H0.5L0.5-145.2L0.5-145.2 M-1.1-150.2h-2.4v5l0,0
		c0,0.3,0.1,0.6,0.4,0.8c0.2,0.2,0.5,0.4,0.8,0.4s0.6-0.1,0.8-0.4c0.2-0.2,0.4-0.5,0.4-0.8c0-0.1,0-0.1,0-0.2L-1.1-150.2
		 M-6.4-162.5L-6.4-162.5l-0.7-1.1l0.2,1L-6.4-162.5 M3.1-157.5l3-4.9l0.6-1L5.9-164l-0.8-0.6c-2,3.3-3.8,4.7-5.6,4.4
		c-1.3-0.3-3-1.7-4.9-4.3l-0.9,0.6v1.5l3.2,5.2l-2.1,7h1.7h2.4h1.6h2.4h1.9L3.1-157.5 M-20-173.1c0.3-0.7,0.7-0.7,0.9,0v26.7
		c0.1,1.2,0.7,1.8,1.9,1.7c1.1-0.1,1.8-0.5,2-1.4c0-0.1,0-0.1,0-0.2v-15.1h1.1v15.1c0.1,1,0.8,1.5,2,1.6c1.2,0.1,1.8-0.5,1.9-1.7
		v-26.7c0.3-0.7,0.6-0.7,0.9,0l0.6,10.5l1.9,0.2l-0.2-1l0.7,1.1v-1.5v-9.5c0-2.9-1.4-4.4-4-4.6h-8.6c-2.7,0.2-4,1.8-4,4.6v14.4
		l-3.2,14h1.9l2.8-14.1L-20-173.1 M10.7-170.9c0.7-0.7,1-0.7,1.1,0.1l-4,14H12v-2.4v2.4v10.3c0,1.2,0.6,1.7,1.6,1.6
		c1-0.1,1.6-0.6,1.7-1.5v-10.3v-2.4v2.4h0.9v-2.4v2.4v10.4c0.1,0.9,0.7,1.4,1.7,1.5c1,0.1,1.5-0.4,1.6-1.6v-10.3v-2.4v2.4h4.1
		l-4.2-14.4c0.1-0.7,0.4-0.9,1-0.5l2.7,9.2c0.5,0.5,1,0.7,1.7,0.5c0.7-0.2,1-0.7,1.1-1.6l-3.5-10.8c-0.7-1.4-1.7-2-2.9-2h-7.8
		c-1.4,0.3-2.4,1.1-2.8,2.3L6-164l0.8,0.6l-0.6,1c1.3,0.7,2.1,0.4,2.6-0.8L10.7-170.9 M15.8-177.3c1.1,0,2-0.4,2.7-1.1
		c0.7-0.7,1.1-1.6,1.1-2.7c0-1.1-0.4-2-1.1-2.7c-0.7-0.7-1.6-1.1-2.7-1.1c-1.1,0-2,0.4-2.7,1.1s-1.1,1.6-1.1,2.7
		c0,1.1,0.4,2,1.1,2.7c0.7,0.7,1.5,1,2.4,1.1C15.6-177.3,15.7-177.3,15.8-177.3 M31.3-170.9c0.7-0.7,1-0.7,1.1,0.1l-4,14h4.2v-2.4
		v2.4v10.3c0,1.2,0.6,1.7,1.6,1.6c1-0.1,1.6-0.6,1.7-1.5v-10.3v-2.4v2.4h0.9v-2.4v2.4v10.4c0.1,1,0.7,1.5,1.6,1.5
		c1.1,0,1.6-0.5,1.7-1.6v-10.3v-2.4v2.4h4.1L40-171c0.1-0.7,0.4-0.9,1-0.5l2.7,9.2c0.5,0.5,1,0.7,1.7,0.5s1-0.7,1.1-1.6l-3.6-10.9
		c-0.7-1.4-1.7-2-2.9-2h-7.8c-1.4,0.3-2.4,1.1-2.8,2.3l-2.9,10c-0.2,0.9-0.1,1.4,0.2,1.6c1.3,0.7,2.1,0.4,2.6-0.8L31.3-170.9
		 M38.8-178.6c0.7-0.7,1-1.5,1-2.5s-0.3-1.8-1-2.5c-0.7-0.7-1.5-1-2.5-1s-1.8,0.3-2.5,1c-0.7,0.7-1,1.5-1,2.5s0.3,1.8,1,2.5
		c0.6,0.6,1.3,0.9,2.2,1c0.1,0,0.2,0,0.3,0C37.3-177.6,38.1-177.9,38.8-178.6 M57.5-154.2l-2-5.4c-0.2-0.5-0.6-0.8-1-1
		c-0.4-0.2-0.8-0.3-1.3-0.3h-4.8c-1.1,0.2-1.9,0.9-2.4,2l-2.1,5.6c-0.1,0.7,0,1.2,0.6,1.4c0.5,0.2,1,0.1,1.4-0.5l1.5-4.6
		c0.1-0.1,0.2-0.1,0.3-0.1c0.1,0,0.2,0,0.3,0.1v11.7c0,0.8,0.4,1.1,1.2,1.1c0.8,0,1.1-0.4,1.2-1.1v-5.8c0.3-0.4,0.6-0.4,0.9,0v5.9
		c0,0.7,0.4,1,1.2,1c0.8,0,1.2-0.3,1.3-1v-12.2c0.2-0.2,0.4-0.2,0.7,0l1.3,4.1c0.4,0.7,0.9,0.9,1.5,0.6
		C57.6-152.9,57.8-153.4,57.5-154.2 M53.6-164.8c-0.1-0.7-0.3-1.3-0.8-1.8s-1.2-0.8-2-0.8s-1.5,0.3-2,0.8s-0.8,1.1-0.8,1.8
		c0,0.1,0,0.1,0,0.2c0,0.8,0.3,1.5,0.8,2c0.6,0.6,1.2,0.8,2,0.8s1.5-0.3,2-0.8c0.6-0.5,0.8-1.2,0.8-2
		C53.6-164.7,53.6-164.8,53.6-164.8 M68-182.8c0-1-0.4-1.9-1.1-2.6c-0.7-0.7-1.6-1.1-2.6-1.1s-1.9,0.4-2.6,1.1
		c-0.7,0.7-1.1,1.6-1.1,2.6s0.4,1.9,1.1,2.6c0.6,0.6,1.4,1,2.3,1.1c0.1,0,0.2,0,0.3,0c1,0,1.9-0.4,2.6-1.1
		C67.7-180.9,68-181.8,68-182.8 M69-173.1c0.3-0.7,0.6-0.7,0.9,0v10.6h3v-11c0-2.9-1.4-4.4-4-4.6h-4.3H60c-2.8,0.2-4.3,1.8-4.3,4.6
		v10.9h3.2v-10.6c0.4-0.7,0.7-0.7,1,0v26.7c0.1,1.2,0.7,1.8,2,1.7c1.3-0.1,2-0.6,2.1-1.6v-15h0.7h0.6v15.1c0.1,1,0.8,1.5,2,1.6
		c1.2,0.1,1.8-0.5,1.9-1.7v-26.7H69z"/>
</g>
</svg>
