<?xml version="1.0" encoding="utf-8"?>
<!-- Generator: Adobe Illustrator 21.1.0, SVG Export Plug-In . SVG Version: 6.00 Build 0)  -->
<svg version="1.1" id="Layer_1" xmlns="http://www.w3.org/2000/svg" xmlns:xlink="http://www.w3.org/1999/xlink" x="0px" y="0px"
	 viewBox="0 0 100 100" style="enable-background:new 0 0 100 100;" xml:space="preserve">
<style type="text/css">
	.st0{fill:#636363;}
	.st1{fill:#00BCD4;}
</style>
<g transform="matrix( 0.7239532470703125, 0, 0, 0.7234954833984375, 0.5,8.2) ">
	<g transform="matrix( 1, 0, 0, 1, 0,0) ">
		<g>
			<g id="FL_02_0_Layer0_0_FILL">
				<path class="st0" d="M-301-29.8v5.8h43.8v-5.8c25.9-7.3,41.2-24.9,45.9-52.9h-136.8C-342.2-54.6-326.5-37-301-29.8
					 M-297.3-139.6h-9.4c-4.4,4.3-7.2,9.6-8.2,15.7c-1.2,7.4,1,14.2,6.7,20.5c4,4.4,4.9,9.7,2.8,15.9h9.1c2.3-6.2,1-12.5-3.9-18.7
					c-4.9-4.5-7-9.8-6.4-15.7C-304.9-129.5-301.9-135.4-297.3-139.6 M-271.3-139.6h-9.4c-4.4,4.3-7.1,9.6-8.1,15.7
					c-1.2,7.4,1,14.2,6.7,20.5c4,4.4,4.9,9.7,2.8,15.9h9.1c2.3-6.2,0.9-12.5-4-18.7c-4.9-4.5-7-9.8-6.4-15.7
					C-278.9-129.5-275.9-135.4-271.3-139.6 M-245.3-139.6h-9.4c-4.4,4.3-7.2,9.6-8.2,15.7c-1.2,7.4,1,14.2,6.7,20.5
					c4,4.4,4.9,9.7,2.8,15.9h9.1c2.3-6.2,0.9-12.5-3.9-18.7c-4.9-4.5-7-9.8-6.4-15.7C-252.9-129.5-249.9-135.4-245.3-139.6z"/>
			</g>
		</g>
	</g>
</g>
<g transform="matrix( 0.7239532470703125, 0, 0, 0.7234954833984375, 0.5,8.2) ">
	<g transform="matrix( 1, 0, 0, 1, 0,0) ">
		<g>
			<g id="FL_02_0_Layer0_0_FILL_1_">
				<path class="st1" d="M47.1,109.8v5.8h43.8v-5.8c25.9-7.3,41.2-24.9,45.9-52.9H0C5.9,85,21.6,102.6,47.1,109.8 M50.8,0h-9.4
					c-4.4,4.3-7.2,9.6-8.2,15.7c-1.2,7.4,1,14.2,6.7,20.5c4,4.4,4.9,9.7,2.8,15.9h9.1c2.3-6.2,1-12.5-4-18.7
					c-4.9-4.5-7-9.8-6.4-15.7C43.1,10.1,46.2,4.2,50.8,0 M76.8,0h-9.4c-4.4,4.3-7.2,9.6-8.2,15.7c-1.2,7.4,1,14.2,6.7,20.5
					c4,4.4,4.9,9.7,2.8,15.9h9.1c2.3-6.2,0.9-12.5-4-18.7c-4.9-4.5-7-9.8-6.3-15.7C69.1,10.1,72.2,4.2,76.8,0 M102.8,0h-9.4
					c-4.4,4.3-7.2,9.6-8.2,15.7c-1.2,7.4,1,14.2,6.7,20.5c4,4.4,4.9,9.7,2.8,15.9h9.1c2.3-6.2,0.9-12.5-3.9-18.7
					c-4.9-4.5-7-9.8-6.4-15.7C95.1,10.1,98.2,4.2,102.8,0z"/>
			</g>
		</g>
	</g>
</g>
</svg>
