<?xml version="1.0" encoding="utf-8"?>
<!-- Generator: Adobe Illustrator 21.1.0, SVG Export Plug-In . SVG Version: 6.00 Build 0)  -->
<svg version="1.1" id="Layer_1" xmlns="http://www.w3.org/2000/svg" xmlns:xlink="http://www.w3.org/1999/xlink" x="0px" y="0px"
	 viewBox="0 0 100 100" style="enable-background:new 0 0 100 100;" xml:space="preserve">
<style type="text/css">
	.st0{fill:#636363;}
	.st1{fill:#00BCD4;}
</style>
<g transform="matrix( 0.967742919921875, 0, 0, 0.9676666259765625, 0.5,5.85) ">
	<g transform="matrix( 1, 0, 0, 1, 0,0) ">
		<g>
			<g id="FL_04_0_Layer0_0_FILL">
				<path class="st0" d="M-118.3-196.3l-35.5,20.9v55.6l35.5-10.6V-196.3 M-192.7-126.2l-0.5,4.6l37.6,11.3l37.1-12.1v-4.9
					l-36.3,11.8L-192.7-126.2 M-157.4-174.9l-35.5-20.6v65.7l35.5,10.8V-174.9 M-99.7-197.8v6.4h8.8v-6.6c-0.6-2.5-2-3.6-4.4-3.4
					C-97.7-201.4-99.2-200.2-99.7-197.8 M-90.9-189.1h-8.8v59l4.2,13.4l4.7-13.7V-189.1z"/>
			</g>
		</g>
	</g>
</g>
<g transform="matrix( 0.967742919921875, 0, 0, 0.9676666259765625, 0.5,5.85) ">
	<g transform="matrix( 1, 0, 0, 1, 0,0) ">
		<g>
			<g id="FL_04_0_Layer0_0_FILL_1_">
				<path class="st1" d="M74.9,5.2L39.4,26.1v55.6l35.5-10.6V5.2 M0.5,75.3L0,79.9l37.6,11.3l37.1-12.1v-4.9L38.4,86.1L0.5,75.3
					 M35.8,26.6L0.2,6v65.7l35.5,10.8V26.6 M93.5,3.7V10h8.8V3.4c-0.6-2.5-2-3.6-4.4-3.4C95.5,0.1,94,1.4,93.5,3.7 M102.3,12.4h-8.8
					v59l4.2,13.4l4.7-13.6V12.4z"/>
			</g>
		</g>
	</g>
</g>
</svg>
