<?xml version="1.0" encoding="utf-8"?>
<!-- Generator: Adobe Illustrator 21.1.0, SVG Export Plug-In . SVG Version: 6.00 Build 0)  -->
<svg version="1.1" id="Layer_1" xmlns="http://www.w3.org/2000/svg" xmlns:xlink="http://www.w3.org/1999/xlink" x="0px" y="0px"
	 viewBox="0 0 100 100" style="enable-background:new 0 0 100 100;" xml:space="preserve">
<style type="text/css">
	.st0{fill:#636363;}
	.st1{fill:none;stroke:#636363;stroke-linecap:round;stroke-linejoin:round;}
	.st2{fill:#00BCD4;}
	.st3{fill:none;stroke:#00BCD4;stroke-linecap:round;stroke-linejoin:round;}
</style>
<g transform="matrix( 0.6571502685546875, 0, 0, 0.6571502685546875, 0.5,0.5) ">
	<g transform="matrix( 1, 0, 0, 1, 0,0) ">
		<g>
			<g id="FL_07_0_Layer0_0_FILL">
				<path class="st0" d="M-250.2-141.5c-0.2,0.8-0.2,1.6,0.1,2.2c0.1,0.2,0.2,0.4,0.3,0.6c0.1,0.2,0.2,0.4,0.4,0.6l8.6,15.5
					c0.5,0.9,1.2,1.4,2.2,1.7c1,0.3,1.9,0.2,2.8-0.3c0.9-0.5,1.4-1.2,1.8-2.2c0.2-0.9,0.1-1.8-0.2-2.6l-9.1-16.3
					c-0.5-0.8-1.2-1.4-2.1-1.7c-1-0.3-2-0.2-2.9,0.2C-249.3-143.3-249.9-142.6-250.2-141.5 M-207.4-151.1c-0.3-0.9-0.8-1.7-1.6-2.2
					l-16.1-9.6c-0.9-0.5-1.8-0.6-2.7-0.4c-1,0.3-1.8,0.8-2.3,1.7c-0.5,0.9-0.6,1.8-0.3,2.8c0.2,0.8,0.6,1.5,1.2,1.9
					c0.1,0.1,0.3,0.2,0.5,0.3c0.2,0.1,0.4,0.2,0.6,0.4l15.2,9.1c0.9,0.5,1.8,0.6,2.8,0.3c1-0.2,1.7-0.8,2.2-1.6
					C-207.3-149.2-207.1-150.1-207.4-151.1 M-273.4-136.7c-0.7,0.7-1,1.5-1,2.5v18.7c0,1,0.4,1.8,1,2.4c0.7,0.7,1.6,1.1,2.6,1.1
					s1.9-0.4,2.6-1.1c0.6-0.6,1-1.3,1.1-2.1c0-0.2,0-0.4,0-0.6c0-0.3,0-0.5-0.1-0.8v-17.7c0-1-0.4-1.9-1.1-2.6
					c-0.7-0.7-1.5-1.1-2.5-1.1S-272.7-137.4-273.4-136.7 M-296.6-139.6c0.5-0.8,0.7-1.8,0.4-2.8c-0.2-1-0.8-1.7-1.6-2.2
					c-0.8-0.5-1.8-0.7-2.8-0.4c-0.9,0.3-1.7,0.8-2.2,1.6l-9.6,16c-0.5,0.9-0.6,1.8-0.4,2.7c0.3,1,0.8,1.8,1.7,2.3
					c0.9,0.5,1.8,0.6,2.9,0.4c0.8-0.2,1.5-0.6,2-1.2c0.1-0.1,0.2-0.3,0.3-0.4c0.1-0.2,0.2-0.5,0.2-0.7L-296.6-139.6 M-317.9-164.9
					c-0.9-0.2-1.8-0.1-2.7,0.3l-16.3,9c-0.8,0.5-1.4,1.2-1.7,2.1c-0.3,1-0.2,1.9,0.2,2.9c0.5,0.9,1.3,1.4,2.4,1.8
					c0.8,0.2,1.5,0.2,2.3,0c0.2-0.1,0.3-0.2,0.5-0.2c0.3-0.1,0.5-0.3,0.6-0.5l15.4-8.6c0.9-0.4,1.4-1.1,1.7-2.1
					c0.3-0.9,0.2-1.8-0.3-2.7C-316.2-164-317-164.6-317.9-164.9 M-321.4-190c-0.7-0.7-1.5-1-2.5-1.1h-18.7c-1,0-1.8,0.4-2.5,1.1
					c-0.7,0.7-1.1,1.6-1.1,2.6s0.4,1.9,1.2,2.7c0.6,0.6,1.3,1,2,1.1c0.2,0,0.4,0,0.6,0c0.3,0,0.5,0,0.8-0.1h17.6
					c1,0,1.9-0.4,2.6-1.1c0.7-0.7,1-1.6,1-2.6S-320.7-189.2-321.4-190 M-335.5-220.7c0.2,0.1,0.4,0.2,0.7,0.3l15.1,9.1
					c0.9,0.5,1.8,0.6,2.8,0.4c1-0.2,1.7-0.8,2.2-1.7c0.5-0.8,0.7-1.8,0.4-2.8c-0.3-0.9-0.8-1.6-1.5-2.1l-16.1-9.7
					c-0.9-0.5-1.8-0.6-2.6-0.4c-1,0.3-1.8,0.8-2.3,1.7c-0.5,0.9-0.6,1.8-0.4,2.9c0.2,0.8,0.6,1.5,1.2,2
					C-335.9-220.9-335.7-220.8-335.5-220.7 M-294.6-232.6c0.2-0.9,0.1-1.8-0.3-2.6l-9.1-16.4c-0.5-0.8-1.2-1.4-2.1-1.6
					c-1-0.3-1.9-0.2-2.8,0.3c-0.9,0.5-1.5,1.2-1.8,2.3c-0.2,0.8-0.2,1.6,0,2.3c0.1,0.1,0.2,0.2,0.4,0.4c0.1,0.2,0.2,0.4,0.4,0.7
					l8.5,15.4c0.5,0.9,1.3,1.4,2.2,1.7c0.9,0.3,1.8,0.1,2.7-0.4C-295.5-230.9-294.9-231.6-294.6-232.6 M-273.4-261.6
					c-0.7,0.7-1,1.5-1,2.5v18.7c0,1,0.4,1.8,1,2.4c0.7,0.7,1.6,1.1,2.6,1.1s1.9-0.4,2.6-1.1c0.6-0.6,1-1.3,1.1-2.1
					c0-0.2,0-0.3,0-0.6c0-0.3,0-0.5-0.1-0.8V-259c0-1-0.4-1.9-1.1-2.6c-0.7-0.7-1.5-1.1-2.5-1.1S-272.7-262.3-273.4-261.6
					 M-228.1-187.2c0-11.9-4.2-22-12.6-30.4s-18.5-12.6-30.4-12.6s-22,4.2-30.4,12.6c-8.4,8.4-12.6,18.5-12.6,30.4
					c0,11.9,4.2,22,12.6,30.4c8.4,8.4,18.5,12.6,30.4,12.6s22-4.2,30.4-12.6C-232.3-165.2-228.1-175.3-228.1-187.2 M-255.3-203.2
					c4.4,4.4,6.6,9.7,6.6,15.9c0,6.2-2.2,11.6-6.6,16c-4.4,4.4-9.7,6.6-15.9,6.6s-11.6-2.2-16-6.6c-4.4-4.4-6.6-9.7-6.6-16
					c0-6.2,2.2-11.6,6.6-15.9c2.4-2.4,5.1-4.2,8.1-5.2v7.9c-1.1,0.6-2.1,1.4-3.1,2.4c-3,3-4.5,6.7-4.5,10.9c0,4.3,1.5,7.9,4.5,11
					c3,3,6.6,4.5,10.9,4.5c4.3,0,7.9-1.5,10.9-4.5c3-3,4.6-6.7,4.6-11c0-4.3-1.5-7.9-4.6-10.9c-1.1-1.1-2.3-2-3.6-2.7v-7.8
					C-260.7-207.6-257.8-205.8-255.3-203.2 M-273.4-215.6c0.7-0.7,1.6-1.1,2.6-1.1s1.9,0.4,2.5,1.1c0.7,0.7,1.1,1.6,1.1,2.6v17.7
					c0.1,0.2,0.1,0.5,0.1,0.8c0,0.2,0,0.4,0,0.5c-0.1,0.8-0.5,1.4-1.1,2.1c-0.8,0.8-1.6,1.2-2.6,1.2s-1.9-0.4-2.6-1.1
					c-0.7-0.7-1-1.5-1-2.4v-18.7C-274.4-214-274.1-214.9-273.4-215.6 M-196.5-190c-0.7-0.7-1.5-1-2.5-1.1h-18.7
					c-1,0-1.8,0.4-2.4,1.1c-0.7,0.7-1.1,1.6-1.1,2.6s0.4,1.9,1.1,2.7c0.6,0.6,1.3,1,2.1,1.1c0.2,0,0.4,0,0.6,0c0.3,0,0.5,0,0.8-0.1
					h17.7c1,0,1.9-0.4,2.6-1.1c0.7-0.7,1-1.6,1-2.6S-195.8-189.2-196.5-190 M-236.4-252c-0.9,0.3-1.7,0.8-2.2,1.6l-9.6,16
					c-0.5,0.9-0.6,1.8-0.4,2.6c0.3,1,0.8,1.8,1.6,2.3c0.9,0.5,1.8,0.6,2.9,0.4c0.8-0.2,1.5-0.6,2-1.2c0.1-0.1,0.2-0.3,0.3-0.4
					c0.1-0.2,0.2-0.5,0.2-0.7l9.1-15.1c0.5-0.9,0.6-1.8,0.4-2.8c-0.2-1-0.8-1.7-1.7-2.2C-234.5-252.1-235.4-252.2-236.4-252
					 M-208.8-225.3c-0.9-0.2-1.8-0.2-2.7,0.2l-16.4,9.1c-0.8,0.5-1.4,1.2-1.6,2c-0.3,1-0.2,1.9,0.3,2.8c0.5,0.9,1.3,1.5,2.3,1.8
					c0.8,0.2,1.6,0.2,2.4,0c0.2-0.1,0.3-0.1,0.5-0.2c0.2-0.1,0.4-0.3,0.6-0.4l15.5-8.6c0.9-0.5,1.4-1.2,1.8-2.2
					c0.3-1,0.1-1.9-0.4-2.8C-207.1-224.4-207.8-225-208.8-225.3z"/>
			</g>
		</g>
		<g>
			<path id="FL_07_0_Layer0_0_1_STROKES" class="st1" d="M-228.1-187.2c0,11.9-4.2,22-12.6,30.4c-8.4,8.4-18.5,12.6-30.4,12.6
				s-22-4.2-30.4-12.6c-8.4-8.4-12.6-18.5-12.6-30.4c0-11.9,4.2-22,12.6-30.4c8.4-8.4,18.5-12.6,30.4-12.6s22,4.2,30.4,12.6
				S-228.1-199-228.1-187.2z"/>
		</g>
	</g>
</g>
<g transform="matrix( 0.6571502685546875, 0, 0, 0.6571502685546875, 0.5,0.5) ">
	<g transform="matrix( 1, 0, 0, 1, 0,0) ">
		<g>
			<g id="FL_07_0_Layer0_0_FILL_1_">
				<path class="st2" d="M96,121.1c-0.2,0.8-0.2,1.6,0.1,2.2c0.1,0.2,0.2,0.4,0.3,0.6s0.2,0.4,0.4,0.6l8.6,15.5
					c0.5,0.9,1.2,1.4,2.2,1.7c1,0.3,1.9,0.2,2.8-0.3c0.9-0.5,1.5-1.2,1.8-2.2c0.2-0.9,0.2-1.8-0.2-2.6l-9.1-16.3
					c-0.5-0.8-1.2-1.4-2.1-1.7c-1-0.3-2-0.2-2.8,0.2C96.8,119.3,96.2,120.1,96,121.1 M138.8,111.6c-0.3-0.9-0.8-1.7-1.6-2.2l-16-9.7
					c-0.9-0.5-1.8-0.6-2.7-0.3c-1,0.3-1.8,0.8-2.3,1.7c-0.5,0.9-0.6,1.8-0.3,2.8c0.2,0.8,0.6,1.5,1.2,1.9c0.1,0.1,0.3,0.2,0.5,0.3
					c0.2,0.1,0.4,0.2,0.6,0.3l15.2,9.1c0.9,0.5,1.8,0.6,2.8,0.3c1-0.2,1.7-0.8,2.2-1.6C138.8,113.5,139,112.6,138.8,111.6
					 M72.7,125.9c-0.7,0.7-1,1.5-1,2.5v18.7c0,1,0.4,1.8,1,2.4c0.7,0.7,1.6,1.1,2.6,1.1c1,0,1.9-0.4,2.6-1.1c0.6-0.6,1-1.3,1.1-2.1
					c0-0.2,0-0.4,0-0.6c0-0.3,0-0.5-0.1-0.8v-17.7c0-1-0.4-1.9-1.1-2.6c-0.7-0.7-1.5-1.1-2.5-1.1C74.3,124.9,73.4,125.2,72.7,125.9
					 M49.5,123c0.5-0.8,0.7-1.8,0.4-2.8c-0.2-1-0.8-1.7-1.7-2.2c-0.8-0.5-1.8-0.7-2.8-0.5c-0.9,0.3-1.7,0.8-2.2,1.6l-9.6,16
					c-0.5,0.9-0.6,1.8-0.4,2.7c0.3,1,0.8,1.8,1.7,2.3c0.9,0.5,1.8,0.6,2.9,0.4c0.8-0.2,1.5-0.6,2-1.2c0.1-0.1,0.2-0.3,0.3-0.4
					c0.1-0.2,0.2-0.5,0.2-0.7L49.5,123 M28.2,97.8c-0.9-0.2-1.8-0.1-2.7,0.3l-16.3,9c-0.8,0.5-1.4,1.2-1.7,2.1
					c-0.3,1-0.2,1.9,0.2,2.9c0.5,0.9,1.3,1.5,2.4,1.8c0.8,0.2,1.5,0.2,2.3,0c0.2-0.1,0.3-0.2,0.5-0.2c0.3-0.1,0.5-0.3,0.6-0.5
					l15.5-8.6c0.9-0.4,1.4-1.2,1.7-2.2c0.3-0.9,0.2-1.8-0.3-2.7C29.9,98.7,29.2,98.1,28.2,97.8 M24.8,72.7c-0.7-0.7-1.5-1-2.5-1.1
					H3.6c-1,0-1.8,0.4-2.5,1.1C0.4,73.4,0,74.3,0,75.3c0,1,0.4,1.9,1.2,2.7c0.6,0.6,1.3,1,2.1,1.1c0.2,0,0.4,0,0.6,0
					c0.3,0,0.5,0,0.8-0.1h17.7c1,0,1.9-0.4,2.6-1.1c0.7-0.7,1-1.6,1.1-2.6C25.8,74.3,25.5,73.4,24.8,72.7 M10.6,41.9
					c0.2,0.1,0.4,0.2,0.6,0.3l15.2,9.1c0.9,0.5,1.8,0.6,2.8,0.4c1-0.2,1.7-0.8,2.2-1.7c0.5-0.8,0.7-1.8,0.4-2.8
					c-0.3-0.9-0.8-1.6-1.5-2.1l-16.1-9.7c-0.9-0.5-1.8-0.6-2.7-0.3c-1,0.3-1.8,0.8-2.3,1.6c-0.5,0.9-0.6,1.8-0.4,2.9
					c0.2,0.8,0.6,1.5,1.2,2C10.2,41.7,10.4,41.8,10.6,41.9 M51.5,30c0.2-0.9,0.1-1.8-0.3-2.6L42.2,11c-0.5-0.8-1.2-1.4-2.2-1.6
					c-1-0.3-1.9-0.2-2.8,0.3c-0.9,0.5-1.5,1.2-1.8,2.3c-0.2,0.8-0.2,1.6,0,2.3c0.1,0.1,0.2,0.2,0.3,0.4c0.1,0.2,0.2,0.4,0.4,0.7
					l8.6,15.5c0.5,0.9,1.3,1.4,2.2,1.7c0.9,0.3,1.8,0.2,2.7-0.4C50.6,31.7,51.2,31,51.5,30 M72.7,1.1c-0.7,0.7-1,1.5-1,2.5v18.7
					c0,1,0.4,1.8,1,2.5c0.7,0.7,1.6,1.1,2.6,1.1c1,0,1.9-0.4,2.6-1.2c0.6-0.6,1-1.3,1.1-2c0-0.2,0-0.4,0-0.6c0-0.3,0-0.5-0.1-0.8
					V3.7c0-1-0.4-1.9-1.1-2.6C77.2,0.4,76.3,0,75.3,0C74.3,0,73.4,0.4,72.7,1.1 M118.1,75.5c0-11.9-4.2-22-12.6-30.4
					S86.9,32.5,75.1,32.5c-11.9,0-22,4.2-30.4,12.6S32.1,63.6,32.1,75.5s4.2,22,12.6,30.4c8.4,8.4,18.5,12.6,30.4,12.6
					c11.9,0,22-4.2,30.4-12.6C113.9,97.5,118.1,87.3,118.1,75.5 M90.9,59.4c4.4,4.4,6.6,9.7,6.6,16c0,6.2-2.2,11.6-6.6,16
					c-4.4,4.4-9.7,6.6-15.9,6.6c-6.2,0-11.6-2.2-16-6.6c-4.4-4.4-6.6-9.7-6.6-16c0-6.2,2.2-11.6,6.6-16c2.4-2.4,5.1-4.2,8.1-5.2V62
					C66,62.6,65,63.4,64,64.4c-3,3-4.6,6.7-4.6,11s1.5,7.9,4.6,11c3,3,6.6,4.5,10.9,4.5c4.3,0,7.9-1.5,10.9-4.5c3-3,4.6-6.7,4.6-11
					s-1.5-7.9-4.6-11c-1.1-1.1-2.3-2-3.6-2.7V54C85.4,55,88.3,56.8,90.9,59.4 M72.7,47.1c0.7-0.7,1.6-1,2.6-1c1,0,1.8,0.4,2.5,1
					c0.7,0.7,1.1,1.6,1.1,2.6v17.7c0.1,0.2,0.1,0.5,0.1,0.8c0,0.2,0,0.4,0,0.5c-0.1,0.8-0.5,1.4-1.1,2.1c-0.8,0.8-1.6,1.2-2.6,1.2
					c-1,0-1.9-0.4-2.6-1.1c-0.7-0.7-1-1.5-1-2.4V49.6C71.7,48.6,72,47.8,72.7,47.1 M149.6,72.7c-0.7-0.7-1.5-1-2.5-1.1h-18.7
					c-1,0-1.8,0.4-2.4,1.1c-0.7,0.7-1.1,1.6-1.1,2.6c0,1,0.4,1.9,1.2,2.7c0.6,0.6,1.3,1,2.1,1.1c0.2,0,0.4,0,0.6,0
					c0.3,0,0.5,0,0.8-0.1H147c1,0,1.9-0.4,2.6-1.1c0.7-0.7,1-1.6,1-2.6C150.7,74.3,150.3,73.4,149.6,72.7 M109.8,10.7
					c-0.9,0.3-1.7,0.8-2.2,1.6l-9.6,16c-0.5,0.9-0.6,1.8-0.4,2.7c0.3,1,0.8,1.8,1.6,2.3c0.9,0.5,1.8,0.6,2.9,0.3
					c0.8-0.2,1.5-0.6,2-1.2c0.1-0.1,0.2-0.3,0.3-0.5c0.1-0.2,0.2-0.5,0.2-0.7l9.1-15.1c0.5-0.9,0.6-1.8,0.4-2.8
					c-0.2-1-0.8-1.7-1.7-2.2C111.7,10.6,110.8,10.4,109.8,10.7 M137.3,37.3c-0.9-0.2-1.8-0.2-2.7,0.2l-16.4,9.1
					c-0.8,0.5-1.4,1.2-1.7,2c-0.3,1-0.2,1.9,0.3,2.8c0.5,0.9,1.3,1.5,2.3,1.8c0.8,0.2,1.6,0.2,2.4,0c0.2-0.1,0.3-0.1,0.5-0.2
					c0.2-0.1,0.4-0.3,0.5-0.5l15.5-8.6c0.9-0.5,1.4-1.2,1.8-2.2c0.3-1,0.1-1.9-0.4-2.8C139,38.2,138.3,37.6,137.3,37.3z"/>
			</g>
		</g>
		<g>
			<path id="FL_07_0_Layer0_0_1_STROKES_1_" class="st3" d="M118.1,75.5c0,11.9-4.2,22-12.6,30.4c-8.4,8.4-18.5,12.6-30.4,12.6
				c-11.9,0-22-4.2-30.4-12.6c-8.4-8.4-12.6-18.5-12.6-30.4s4.2-22,12.6-30.4s18.5-12.6,30.4-12.6c11.9,0,22,4.2,30.4,12.6
				S118.1,63.6,118.1,75.5z"/>
		</g>
	</g>
</g>
</svg>
