<?xml version="1.0" encoding="utf-8"?>
<!-- Generator: Adobe Illustrator 21.1.0, SVG Export Plug-In . SVG Version: 6.00 Build 0)  -->
<svg version="1.1" id="Layer_1" xmlns="http://www.w3.org/2000/svg" xmlns:xlink="http://www.w3.org/1999/xlink" x="0px" y="0px"
	 viewBox="0 0 100 100" style="enable-background:new 0 0 100 100;" xml:space="preserve">
<style type="text/css">
	.st0{fill:#00BCD4;}
	.st1{fill:none;stroke:#00BCD4;stroke-linecap:round;stroke-linejoin:round;}
	.st2{fill:#636363;}
	.st3{fill:none;stroke:#000000;stroke-linecap:round;stroke-linejoin:round;}
</style>
<g transform="matrix( 0.546356201171875, 0, 0, 0.5461273193359375, 0.5,5.45) ">
	<g transform="matrix( 1, 0, 0, 1, 0,0) ">
		<g>
			<g id="FL_16_0_Layer0_0_FILL">
				<path class="st0" d="M9.4,121.7c-1.1-1.1-2.4-1.6-3.9-1.6s-2.8,0.5-3.9,1.6c-0.9,0.9-1.4,1.9-1.6,3.1L0,138.1l0.1,0.4
					c0.1,1.3,0.6,2.4,1.6,3.3c1.1,1.1,2.4,1.6,3.9,1.6s2.8-0.5,3.9-1.6c0.9-0.9,1.4-2,1.6-3.3v-13.1c0-0.3,0-0.5-0.1-0.8
					C10.8,123.6,10.2,122.6,9.4,121.7 M145.6,0c-2.9,4.7-3.1,9.8-0.6,15.3c2.1,2.7,5.4,4,9.9,3.9c4.1-5.6,3.3-10.4-2.4-14.3
					C148.6,2.4,146.4,0.7,145.6,0 M170.1,163.1c0.3,0,0.5,0,0.8,0c1.1-0.2,2.1-0.7,2.9-1.6c1.1-1.1,1.6-2.4,1.6-3.9
					c0-1.5-0.5-2.8-1.6-3.9c-0.9-0.9-1.9-1.4-3.1-1.6l-32.9-0.1c-0.2,0-0.3,0-0.4,0.1c-1.3,0.1-2.4,0.6-3.4,1.6
					c-1.1,1.1-1.6,2.4-1.6,3.9c0,1.5,0.5,2.8,1.6,3.9c0.9,0.9,2.1,1.5,3.4,1.6c0.2,0,0.3,0,0.5,0H170.1 M171.2,148.2v-33.6h-35.8
					v10.5H87.7v-15.4c7.9-1,15.4-3.2,22.3-6.5c12.8-6.5,20.4-16.8,22.7-31c1.2-7.3,1.6-15.4,1.2-24.3c-0.1-3.7,4.9-6.8,15.1-9.4
					c0.1,0,0.3-0.1,0.4-0.1c0,0.1-0.1,0.1-0.1,0.2c-0.4,6.1,1,10.9,4,14.3l3.2-3.5c-1.7-2.3-2.7-6.2-2.9-11.8
					c-0.1-0.1-0.1-0.1-0.1-0.2c1-0.2,2-0.4,3-0.6l-2.4-2c0,0,0.1-0.1,0.1-0.1c1.8-6.6,4.6-11.5,8.5-14.8l-3.2-3.1
					c-4,4.1-7.1,8.9-9.1,14.6c0,0,0,0.1,0,0.1l-2.5-2.1c-1.9-3-4.1-4.9-6.7-5.6c-5.2-1.5-11.8,1.5-19.8,9
					c-8.4,9.7-17.4,14.2-27.1,13.6c-0.4-0.1-0.9-0.2-1.3-0.3c-7.7-2.1-18.2-10-31.4-23.6c-2.7-2.5-5.5-4.7-8.3-6.5
					c-3.7-2.4-6.7-3.7-8.8-4c-3.9-1.6-7.6-2.1-11.2-1.5c-3.9,0-8,0.7-12.1,2.1c7.4,7.7,11.9,17.3,13.6,28.8
					c1.6,11.5,5.2,19.7,10.9,24.8c5.1,6,11.2,9.4,18.3,10.2l1.5,0.4c0.2,0,0.3,0.1,0.5,0.1c-6.6,1.6-13.2,5.3-19.8,11
					c-5.4,3.2-12.5,4.2-21.3,3c2.3,3.5,5.4,6.5,9.4,9.1c5.2,3.1,9.8,5.2,13.8,6.3l8.7,2.2c1,0.2,2.1,0.4,3.2,0.5
					c2.5,0.4,5.7,0.7,9.6,0.9v15H15.5v12.8h120v10.3H171.2 M80.4,110.4l0.3-0.1v14.8h-4.3v-14.6L80.4,110.4 M87.1,107.7l0.2-0.1v0.1
					H87.1 M170.1,110.6c0.3,0,0.5,0,0.8-0.1c1.1-0.2,2.1-0.7,2.9-1.5c1.1-1.1,1.6-2.4,1.6-3.9c0-1.5-0.5-2.8-1.6-3.9
					c-0.9-0.9-1.9-1.4-3.1-1.6l-32.9,0c-0.2,0-0.3,0-0.4,0c-1.3,0.1-2.4,0.6-3.4,1.6c-1.1,1.1-1.6,2.4-1.6,3.9
					c0,1.5,0.5,2.8,1.6,3.9c0.9,0.9,2.1,1.5,3.4,1.6c0.2,0,0.3,0,0.5,0H170.1 M181.2,28.3c-2.8-4.7-7.2-7.3-13.3-7.7
					c-3.3,0.6-6,2.9-8,6.9c3,6.3,7.6,7.8,13.8,4.5C177.7,30,180.2,28.7,181.2,28.3 M163.1,16.9c6.6,2.1,10.9-0.2,12.7-7
					c1.2-4.4,2-7.1,2.4-8.1c-5.3-1.2-10.2,0.3-14.7,4.5C161.6,9.2,161.5,12.7,163.1,16.9z"/>
			</g>
		</g>
		<g>
			<path id="FL_16_0_Layer0_0_1_STROKES" class="st1" d="M65.8,77.1c-0.2,0-0.3-0.1-0.5-0.1l-1.5-0.4"/>
		</g>
	</g>
</g>
<g transform="matrix( 0.546356201171875, 0, 0, 0.5461273193359375, 0.5,5.45) ">
	<g transform="matrix( 1, 0, 0, 1, 0,0) ">
		<g>
			<g id="FL_16_0_Layer0_0_FILL_1_">
				<path class="st2" d="M-274.8-264c-1.1-1.1-2.4-1.6-3.9-1.6s-2.8,0.5-3.9,1.6c-0.9,0.9-1.4,1.9-1.6,3.1l0,13.3l0,0.4
					c0.1,1.3,0.6,2.4,1.6,3.3c1.1,1.1,2.4,1.6,3.9,1.6s2.8-0.5,3.9-1.6c0.9-0.9,1.4-2,1.6-3.3v-13.1c0-0.3,0-0.5-0.1-0.8
					C-273.5-262.2-274-263.2-274.8-264 M-138.7-385.8c-2.9,4.7-3.1,9.8-0.6,15.3c2.1,2.7,5.4,4,9.9,3.9c4.1-5.6,3.3-10.4-2.4-14.3
					C-135.6-383.4-137.9-385-138.7-385.8 M-114.2-222.6c0.3,0,0.5,0,0.8,0c1.1-0.2,2.1-0.7,2.9-1.6c1.1-1.1,1.6-2.4,1.6-3.9
					c0-1.5-0.5-2.8-1.6-3.9c-0.9-0.9-1.9-1.4-3.1-1.6l-32.9-0.1c-0.2,0-0.3,0-0.4,0.1c-1.3,0.1-2.4,0.6-3.4,1.6
					c-1.1,1.1-1.6,2.4-1.6,3.9c0,1.5,0.5,2.8,1.6,3.9c0.9,0.9,2.1,1.5,3.4,1.6c0.2,0,0.3,0,0.5,0H-114.2 M-113.1-237.6v-33.6h-35.8
					v10.5h-47.8V-276c7.9-1,15.4-3.2,22.3-6.5c12.8-6.5,20.4-16.8,22.7-31c1.2-7.3,1.6-15.4,1.2-24.3c-0.1-3.7,4.9-6.8,15.1-9.4
					c0.1,0,0.3-0.1,0.4-0.1c0,0.1-0.1,0.1-0.1,0.2c-0.4,6.1,1,10.9,4,14.2l3.2-3.5c-1.7-2.3-2.7-6.2-2.9-11.8
					c-0.1-0.1-0.1-0.1-0.1-0.1c1-0.2,2-0.4,3-0.6l-2.4-2c0,0,0.1-0.1,0.1-0.1c1.8-6.6,4.6-11.5,8.5-14.8l-3.2-3.1
					c-4,4.1-7.1,8.9-9.1,14.6c0,0,0,0.1,0,0.1l-2.5-2.1c-1.9-3-4.1-4.9-6.7-5.6c-5.2-1.5-11.8,1.5-19.8,9
					c-8.4,9.7-17.4,14.2-27.1,13.5c-0.4-0.1-0.9-0.2-1.3-0.3c-7.7-2.1-18.2-10-31.4-23.6c-2.7-2.5-5.5-4.7-8.3-6.5
					c-3.7-2.4-6.6-3.7-8.8-4c-3.9-1.6-7.6-2.1-11.2-1.5c-3.9,0-8,0.7-12.1,2.1c7.4,7.7,11.9,17.3,13.6,28.8
					c1.6,11.5,5.2,19.7,10.9,24.8c5.1,6,11.2,9.4,18.3,10.1l1.4,0.4c0.2,0,0.3,0.1,0.5,0.1c-6.6,1.6-13.2,5.3-19.8,11
					c-5.4,3.2-12.5,4.2-21.3,3c2.3,3.5,5.4,6.5,9.4,9.1c5.2,3.1,9.8,5.2,13.8,6.3l8.7,2.2c1,0.2,2.1,0.4,3.1,0.5
					c2.5,0.4,5.7,0.7,9.6,0.9v15h-53.8v12.8h120v10.3H-113.1 M-203.8-275.4l0.3-0.1v14.8h-4.3v-14.6L-203.8-275.4 M-197.1-278.1
					l0.2-0.1v0.1H-197.1 M-114.2-275.1c0.3,0,0.5,0,0.8,0c1.1-0.2,2.1-0.7,2.9-1.6c1.1-1.1,1.6-2.4,1.6-3.9c0-1.5-0.5-2.8-1.6-3.9
					c-0.9-0.9-1.9-1.4-3.1-1.6l-32.9,0c-0.2,0-0.3,0-0.4,0c-1.3,0.1-2.4,0.6-3.4,1.6c-1.1,1.1-1.6,2.4-1.6,3.9s0.5,2.8,1.6,3.9
					c0.9,0.9,2.1,1.5,3.4,1.6c0.2,0,0.3,0,0.5,0H-114.2 M-103-357.4c-2.8-4.7-7.2-7.2-13.3-7.6c-3.3,0.6-5.9,2.9-7.9,6.9
					c3,6.3,7.6,7.8,13.8,4.5C-106.5-355.8-104-357.1-103-357.4 M-121.2-368.8c6.6,2.1,10.9-0.2,12.7-7c1.2-4.4,2-7.1,2.4-8.1
					c-5.3-1.2-10.2,0.3-14.7,4.5C-122.6-376.5-122.7-373-121.2-368.8z"/>
			</g>
		</g>
		<g>
			<path id="FL_16_0_Layer0_0_1_STROKES_1_" class="st3" d="M-602.8-645.6c-0.2,0-0.3-0.1-0.5-0.1l-1.5-0.4"/>
		</g>
	</g>
</g>
</svg>
