<?xml version="1.0" encoding="utf-8"?>
<!-- Generator: Adobe Illustrator 21.1.0, SVG Export Plug-In . SVG Version: 6.00 Build 0)  -->
<svg version="1.1" id="Layer_1" xmlns="http://www.w3.org/2000/svg" xmlns:xlink="http://www.w3.org/1999/xlink" x="0px" y="0px"
	 viewBox="0 0 100 100" style="enable-background:new 0 0 100 100;" xml:space="preserve">
<style type="text/css">
	.st0{fill:#00BCD4;}
	.st1{fill:#636363;}
</style>
<g transform="matrix( 1.2313385009765625, 0, 0, 1.231201171875, 0.5,0.9) ">
	<g transform="matrix( 1, 0, 0, 1, 0,0) ">
		<g>
			<g id="FL_17_0_Layer0_0_FILL">
				<path class="st0" d="M74.1,20.9c-3.7-3.7-8.2-5.8-13.3-6.2c-1-3.1-2.8-5.9-5.3-8.4C51.3,2.1,46.2,0,40.2,0S29.1,2.1,24.9,6.3
					c-2.5,2.5-4.2,5.3-5.2,8.4c-5.2,0.4-9.6,2.5-13.4,6.2C2.1,25.1,0,30.2,0,36.2s2.1,11,6.3,15.2c0.4,0.4,0.9,0.8,1.3,1.2
					C7.2,54.4,7,56.2,7,58.2c0,6,2.1,11,6.3,15.2c4.2,4.2,9.3,6.4,15.3,6.4c4.4,0,8.3-1.1,11.7-3.4c3.4,2.3,7.3,3.4,11.7,3.4
					c6,0,11-2.1,15.2-6.4c4.2-4.2,6.3-9.3,6.3-15.2c0-2-0.2-3.8-0.7-5.7c0.4-0.4,0.8-0.7,1.2-1.1c4.2-4.2,6.3-9.3,6.3-15.2
					S78.3,25.1,74.1,20.9 M61.8,21.6c0-0.6,0-1.1,0-1.6c3.3,0.5,6.2,2,8.7,4.5c3.2,3.3,4.8,7.2,4.8,11.7c0,4.4-1.5,8.2-4.4,11.3
					c-1-1.6-2.2-3.2-3.6-4.6c-3.4-3.4-7.3-5.4-11.8-6.1C59.7,32.6,61.8,27.5,61.8,21.6 M55.3,14.8c-4.5,0.7-8.4,2.7-11.8,6.1
					c-1.3,1.3-2.4,2.7-3.3,4.2c-0.9-1.5-2-2.9-3.3-4.2c-3.4-3.4-7.3-5.4-11.7-6.1c0.8-1.8,1.9-3.5,3.4-5c3.2-3.2,7.1-4.8,11.7-4.8
					s8.4,1.6,11.6,4.8C53.4,11.4,54.5,13,55.3,14.8 M56.7,19.8c0,0.6,0,1.1,0,1.8c0,4.6-1.6,8.5-4.9,11.7c-2.5,2.5-5.4,4.1-8.7,4.7
					c-0.3,0-0.5,0.1-0.8,0.1c-0.1-0.6-0.1-1.2-0.1-1.8c0-1.5,0.2-2.9,0.5-4.3c0.7-2.8,2.1-5.3,4.2-7.5C49.8,21.8,53,20.3,56.7,19.8
					 M44.4,43.5c2.3-1.2,4.8-1.8,7.6-1.8c4.6,0,8.4,1.6,11.6,4.8c1.3,1.3,2.3,2.7,3.2,4.2c-2.4,1.3-5.1,2-8,2
					c-4.1,0-7.6-1.3-10.6-3.8c-0.4-0.3-0.7-0.7-1.1-1c-1.3-1.3-2.3-2.7-3-4.2C44.2,43.6,44.3,43.5,44.4,43.5 M23.8,19.8
					c3.6,0.4,6.8,2,9.4,4.6c2.2,2.2,3.6,4.7,4.3,7.5c0.3,1.4,0.5,2.8,0.5,4.3c0,0.6,0,1.2-0.1,1.8c-0.2-0.1-0.5-0.1-0.8-0.1
					c-3.3-0.6-6.2-2.1-8.7-4.6c-3.2-3.2-4.8-7.1-4.8-11.7C23.7,21,23.7,20.4,23.8,19.8 M9.9,24.5c2.5-2.5,5.4-4,8.7-4.5
					c0,0.5,0,1.1,0,1.6c0,6,2.1,11,6.3,15.3l0.1,0.1c-4.4,0.7-8.3,2.7-11.6,6c-1.5,1.5-2.7,3-3.6,4.8c-3.1-3.2-4.6-7-4.6-11.5
					C5.1,31.6,6.7,27.7,9.9,24.5 M40,46.8c0.1-0.1,0.2-0.2,0.3-0.3c0.1,0.1,0.1,0.1,0.2,0.2c1.5,1.5,2.6,3.2,3.3,5
					c0.8,2,1.2,4.1,1.2,6.4c0,4.6-1.6,8.5-4.8,11.7c-3.2-3.2-4.8-7.1-4.8-11.7c0-2.5,0.5-4.7,1.4-6.8C37.6,49.7,38.7,48.2,40,46.8
					 M33.3,47.9c-0.2,0.2-0.4,0.4-0.7,0.6c-3.1,2.8-6.7,4.2-11,4.2c-2.9,0-5.5-0.6-7.8-1.9c0.8-1.6,1.8-3,3.1-4.3
					c3.2-3.2,7.1-4.8,11.7-4.8c2.8,0,5.3,0.6,7.5,1.8c0.1,0,0.2,0.1,0.2,0.1C35.6,45.1,34.6,46.5,33.3,47.9 M21.6,57.8
					c3.2,0,6.2-0.6,8.9-1.8c-0.1,0.7-0.1,1.5-0.1,2.2c0,5.7,1.9,10.6,5.8,14.7c-2.3,1.2-4.8,1.8-7.6,1.8c-4.6,0-8.5-1.6-11.7-4.8
					c-3.2-3.2-4.8-7.1-4.8-11.7c0-0.8,0.1-1.7,0.2-2.5C15.1,57.1,18.2,57.8,21.6,57.8 M68.4,55.6c0.1,0.8,0.2,1.7,0.2,2.5
					c0,4.6-1.6,8.5-4.8,11.7c-3.2,3.2-7.1,4.8-11.6,4.8c-2.8,0-5.3-0.6-7.6-1.8c3.9-4.1,5.8-9,5.8-14.7c0-0.7,0-1.5-0.1-2.2
					c2.7,1.2,5.6,1.8,8.7,1.8C62.3,57.8,65.5,57.1,68.4,55.6z"/>
			</g>
		</g>
	</g>
</g>
<g transform="matrix( 1.2313385009765625, 0, 0, 1.231201171875, 0.5,0.9) ">
	<g transform="matrix( 1, 0, 0, 1, 0,0) ">
		<g>
			<g id="FL_17_0_Layer0_0_FILL_1_">
				<path class="st1" d="M110.4-218.1c-3.7-3.7-8.2-5.8-13.3-6.2c-1-3.1-2.8-5.9-5.3-8.4c-4.2-4.2-9.3-6.3-15.2-6.3
					s-11.1,2.1-15.3,6.3c-2.5,2.5-4.2,5.3-5.2,8.4c-5.2,0.4-9.6,2.5-13.4,6.2c-4.2,4.2-6.3,9.3-6.3,15.3c0,6,2.1,11.1,6.3,15.2
					c0.4,0.4,0.9,0.8,1.3,1.2c-0.4,1.7-0.6,3.6-0.6,5.5c0,6,2.1,11.1,6.3,15.2c4.2,4.2,9.3,6.4,15.3,6.4c4.4,0,8.3-1.1,11.7-3.4
					c3.4,2.3,7.3,3.4,11.7,3.4c6,0,11-2.1,15.2-6.4c4.2-4.2,6.3-9.3,6.3-15.2c0-2-0.2-3.9-0.7-5.7c0.4-0.4,0.8-0.7,1.2-1.1
					c4.2-4.2,6.3-9.3,6.3-15.2C116.7-208.8,114.6-213.9,110.4-218.1 M98.1-217.4c0-0.6,0-1.1-0.1-1.6c3.3,0.5,6.2,2,8.7,4.5
					c3.2,3.3,4.9,7.2,4.9,11.7c0,4.4-1.5,8.2-4.5,11.3c-1-1.6-2.2-3.2-3.6-4.6c-3.4-3.4-7.3-5.4-11.8-6.1
					C96-206.3,98.1-211.4,98.1-217.4 M91.6-224.1c-4.5,0.7-8.4,2.7-11.8,6.1c-1.3,1.3-2.4,2.7-3.3,4.2c-0.9-1.5-2-2.9-3.3-4.2
					c-3.4-3.4-7.3-5.4-11.7-6.1c0.8-1.8,1.9-3.4,3.4-4.9c3.2-3.2,7.1-4.8,11.7-4.8s8.4,1.6,11.6,4.8
					C89.7-227.6,90.8-225.9,91.6-224.1 M93-219.1c0,0.6,0,1.1,0,1.8c0,4.6-1.6,8.5-4.8,11.7c-2.5,2.5-5.4,4.1-8.7,4.7
					c-0.3,0-0.5,0.1-0.8,0.1c-0.1-0.6-0.1-1.2-0.1-1.8c0-1.5,0.2-2.9,0.5-4.2c0.7-2.8,2.1-5.2,4.2-7.5
					C86.1-217.2,89.3-218.7,93-219.1 M80.7-195.5c2.3-1.2,4.8-1.8,7.6-1.8c4.6,0,8.4,1.6,11.6,4.8c1.3,1.3,2.3,2.7,3.2,4.2
					c-2.4,1.3-5.1,2-8,2c-4.1,0-7.6-1.3-10.6-3.9c-0.4-0.3-0.7-0.7-1.1-1c-1.3-1.3-2.3-2.7-3-4.2C80.5-195.4,80.6-195.5,80.7-195.5
					 M60.1-219.1c3.6,0.4,6.8,2,9.4,4.6c2.2,2.2,3.6,4.7,4.3,7.5c0.3,1.4,0.5,2.8,0.5,4.2c0,0.6,0,1.2-0.1,1.8
					c-0.2-0.1-0.5-0.1-0.8-0.1c-3.3-0.6-6.2-2.1-8.8-4.6c-3.2-3.2-4.8-7.1-4.8-11.7C60-218,60.1-218.6,60.1-219.1 M46.2-214.5
					c2.5-2.5,5.4-4,8.7-4.5c0,0.5,0,1.1,0,1.6c0,6,2.1,11.1,6.3,15.2l0.1,0.1c-4.4,0.7-8.3,2.7-11.6,6c-1.5,1.5-2.7,3.1-3.6,4.8
					c-3.1-3.2-4.6-7-4.6-11.4C41.4-207.3,43-211.2,46.2-214.5 M76.3-192.1c0.1-0.1,0.2-0.2,0.3-0.3c0.1,0.1,0.1,0.1,0.2,0.2
					c1.5,1.5,2.6,3.2,3.3,5c0.8,2,1.2,4.1,1.2,6.4c0,4.6-1.6,8.5-4.8,11.7c-3.2-3.2-4.8-7.1-4.8-11.7c0-2.5,0.5-4.7,1.4-6.8
					C74-189.2,75-190.7,76.3-192.1 M69.6-191.1c-0.2,0.2-0.4,0.4-0.7,0.6c-3.1,2.8-6.7,4.2-11,4.2c-2.9,0-5.5-0.6-7.8-1.9
					c0.8-1.6,1.8-3,3.1-4.3c3.2-3.2,7.1-4.8,11.7-4.8c2.8,0,5.3,0.6,7.6,1.8c0.1,0,0.2,0.1,0.2,0.1C72-193.9,70.9-192.4,69.6-191.1
					 M57.9-181.2c3.2,0,6.2-0.6,8.9-1.8c-0.1,0.7-0.1,1.5-0.1,2.2c0,5.7,1.9,10.6,5.8,14.8c-2.3,1.2-4.8,1.8-7.6,1.8
					c-4.6,0-8.5-1.6-11.7-4.9c-3.2-3.2-4.8-7.1-4.8-11.7c0-0.8,0.1-1.7,0.2-2.4C51.4-181.9,54.5-181.2,57.9-181.2 M104.7-183.3
					c0.1,0.8,0.2,1.7,0.2,2.6c0,4.6-1.6,8.5-4.8,11.7c-3.2,3.2-7.1,4.9-11.6,4.9c-2.8,0-5.3-0.6-7.7-1.8c3.9-4.1,5.8-9,5.8-14.8
					c0-0.7,0-1.4-0.1-2.2c2.7,1.2,5.6,1.8,8.7,1.8C98.6-181.2,101.8-181.9,104.7-183.3z"/>
			</g>
		</g>
	</g>
</g>
</svg>
