<?xml version="1.0" encoding="utf-8"?>
<!-- Generator: Adobe Illustrator 21.1.0, SVG Export Plug-In . SVG Version: 6.00 Build 0)  -->
<svg version="1.1" id="Layer_1" xmlns="http://www.w3.org/2000/svg" xmlns:xlink="http://www.w3.org/1999/xlink" x="0px" y="0px"
	 viewBox="0 0 100 100" style="enable-background:new 0 0 100 100;" xml:space="preserve">
<style type="text/css">
	.st0{fill:#FFFFFF;}
</style>
<g transform="matrix( 1, 0, 0, 1, 3.35,0) ">
	<g transform="matrix( 1.63946533203125, 0, 0, 1.63946533203125, -2.8,0.5) ">
		<g>
			<g id="Layer0_0_FILL">
				<path class="st0" d="M49.6,30c-0.1-0.1-0.3-0.2-0.5-0.2c0,0-0.1,0-0.1,0c-0.2,0-0.4,0.1-0.6,0.2l-0.8,0.6l-0.7,0.7l-0.7,0.8
					l-1.4-0.2c-0.1,0-0.3,0-0.4,0.1L44.4,0H0v60.1h44.5v-0.8c-2.6-0.1-4.8-1-6.5-2.8h-3v-0.1l-1,1l-0.7,0.8l-0.8,0.6
					C32.3,59,32.1,59,31.9,59c-0.2,0-0.4,0-0.5-0.2l-0.3-0.2c-0.2-0.2-0.3-0.5-0.2-0.9c0-0.2,0.1-0.5,0.2-0.8l0.2,0l0.2-0.4l0.8-0.7
					l1.5-1.4l0.2-0.2h1.8c-0.9-1.3-1.4-2.8-1.5-4.5h-0.4h-0.1h-0.1h-2.2h-0.1h-0.5h-0.1h-0.8c-0.4,0-0.6-0.1-0.8-0.3
					c-0.2-0.2-0.4-0.5-0.4-0.9c0-0.4,0.1-0.6,0.4-0.8c0.2-0.2,0.4-0.3,0.8-0.3l4.2-0.1c0-0.5,0-1,0.1-1.4l0.2-0.8
					c0.3-1.2,0.8-2.3,1.6-3.2h-2.9l-0.1-0.1l-1.7-1.7l-0.6-0.6L30.4,39v0H22h-2.4h-2.1h-0.7H14v-2.8h2.9h2.8h1.9H28h1.9H31V37l0.2,0
					l0.6,0.1l0.7,0.8l0.7,0.7l1.1,1v-0.1h10.1V39h0v-1.2h-6.6c0.1-1.5,0.7-2.8,1.9-4l0.6-0.5l-0.2-0.2l-0.8-0.6l-0.4-0.6
					c-0.2-0.2-0.2-0.5-0.2-0.8c-0.1-0.3,0-0.6,0.2-0.9v0l0.3-0.2c0.2-0.1,0.4-0.2,0.6-0.2c0.1,0,0.2,0,0.4,0.1
					c0.1-0.1,0.3-0.1,0.4-0.1c0.2,0,0.4,0.1,0.5,0.2l0.4,0.2l0.5,0.4l0.7,0.7l0.7,0.8c0.1,0,0.3,0,0.4,0c0.2,0,0.4-0.1,0.6-0.1v0.1
					c0,0,0.1,0,0.1,0v5.8h4.7h1.7c-0.1-1.4-0.7-2.7-1.7-3.8c-0.1-0.1-0.1-0.2-0.2-0.2l-0.5-0.4l0.3-0.2l0.4-0.4l0.2-0.3l0.5-0.5
					c0.2-0.2,0.4-0.5,0.4-0.9s-0.1-0.6-0.4-0.8L49.6,30 M31,14.3V17H14v-2.7H31 M5.2,12.6c0.2,0,0.3,0.1,0.5,0.2l1.8,1.9l2.1-2.2
					c0.1-0.1,0.3-0.1,0.4-0.1c0.2,0,0.3,0,0.4,0.1v0.1c0.1,0.1,0.2,0.3,0.2,0.4c0,0.2-0.1,0.3-0.2,0.4l-2.1,2.1l2,1.9
					c0.2,0.2,0.3,0.4,0.2,0.5c0,0.1-0.1,0.2-0.2,0.4c-0.1,0.1-0.3,0.2-0.5,0.3c-0.1,0-0.2-0.1-0.4-0.3l-1.9-1.9l-2.2,2.1
					c-0.1,0.1-0.2,0.2-0.4,0.2c-0.2,0-0.3-0.1-0.5-0.2v-0.1c-0.1-0.1-0.1-0.2-0.1-0.4c0-0.2,0.1-0.4,0.1-0.6l2.1-2.1l-1.8-1.8
					c-0.1-0.1-0.2-0.3-0.3-0.4c0.1-0.2,0.2-0.4,0.3-0.4C4.9,12.6,5,12.6,5.2,12.6 M10.7,22.9c0.1-0.1,0.3-0.1,0.5-0.1
					c0.2,0,0.3,0.1,0.4,0.1l0.1,0.1c0,0.1,0,0.2,0.1,0.4c0,0.2,0,0.4-0.1,0.5l-4.3,4.3c-0.6,0.5-1.3,0.5-1.9-0.1l-1.8-1.9
					c-0.1-0.1-0.2-0.3-0.2-0.4l0.2-0.5c0.1-0.1,0.2-0.2,0.4-0.2c0.2,0,0.4,0.1,0.4,0.2l1.9,1.8L10.7,22.9 M14,28v-2.7h16.6V28H14
					 M11.7,35c0,0.1,0,0.2,0.1,0.5c0,0.2,0,0.3-0.1,0.5l-4.3,4.2c-0.6,0.6-1.3,0.5-1.9-0.1l-1.8-1.8c-0.1-0.1-0.2-0.3-0.2-0.5
					l0.2-0.4c0.1-0.1,0.2-0.2,0.4-0.2c0.2,0,0.4,0.1,0.4,0.2l1.9,1.9l4.3-4.3c0.1-0.1,0.3-0.2,0.5-0.2C11.3,34.9,11.4,34.9,11.7,35
					L11.7,35 M57.9,36.9c-0.2,0-0.5,0-0.6,0.1l-0.6,0.7l-0.8,0.7l-1.1,1h-6.5h-3.7v20c1.3,0,2.5-0.3,3.7-0.8c1-0.5,2-1.1,3-2h2.9
					v-0.1l1,1l0.8,0.8l0.8,0.6l0.6,0.2c0.1,0,0.2,0,0.5-0.2l0.3-0.3c0.2-0.2,0.4-0.4,0.4-0.8c0-0.3-0.1-0.5-0.4-0.8l-0.5-0.5
					l-0.8-0.6l-1.5-1.5l-0.1-0.1h-2c1-1.3,1.5-2.8,1.7-4.5h0.3h0.2h2.3h0.5h0.5h0.7c0.3,0,0.6-0.1,0.9-0.4c0.2-0.2,0.3-0.5,0.2-0.8
					c0-0.4-0.1-0.6-0.2-0.8c-0.3-0.2-0.5-0.4-0.9-0.4h-0.7h-0.5h-0.5h-2.3h-0.2h-0.2l-0.2-1.5c-0.1-0.4-0.2-0.7-0.2-0.8
					c-0.2-1.1-0.7-2.2-1.5-3.2h2.9v-0.1l1.7-1.7l0.7-0.8l0.5-0.4c0.2-0.2,0.3-0.5,0.3-0.9c0-0.2-0.1-0.5-0.3-0.7v-0.1L58.4,37
					C58.3,36.9,58.1,36.9,57.9,36.9z"/>
			</g>
		</g>
	</g>
</g>
</svg>
