<svg xmlns="http://www.w3.org/2000/svg" width="12.64" height="12.451" viewBox="0 0 12.64 12.451">
  <g id="noun-aquarium-4589889" transform="translate(0 0)">
    <path id="Path_4181" data-name="Path 4181" d="M8.149,18.431a1.241,1.241,0,0,0,.747.252h5.864a1.241,1.241,0,0,0,.747-.252A7,7,0,0,0,15.394,7.4l.683-.822A.215.215,0,0,0,16,6.252a.236.236,0,0,0-.091-.021H7.742a.238.238,0,0,0-.092.022.215.215,0,0,0-.073.328L8.26,7.4a6.97,6.97,0,0,0-.111,11.027ZM8.637,7.657H9.966a.213.213,0,1,0,0-.427h-1.3L8.2,6.658h7.262l-.476.573H13.688a.213.213,0,0,0,0,.427h1.329a6.568,6.568,0,0,1,.231,10.434.811.811,0,0,1-.488.165H8.9a.811.811,0,0,1-.488-.165,6.568,6.568,0,0,1,.23-10.434Z" transform="translate(-5.497 -6.231)" fill="#000000"/>
    <path id="Path_4182" data-name="Path 4182" d="M29.133,32.153A3.211,3.211,0,0,0,31.6,33.8l.943.512a.215.215,0,0,0,.1.026,3.628,3.628,0,0,0,1.76-.352.213.213,0,0,0,.027-.275,3.96,3.96,0,0,1-.328-.562,2.261,2.261,0,0,0,.313-.348l1.431.972a.214.214,0,0,0,.321-.247,6.5,6.5,0,0,1-.358-1.481,6.453,6.453,0,0,1,.358-1.476.215.215,0,0,0-.321-.247l-1.429.972a3.823,3.823,0,0,0-1.073-.935V29.221a.216.216,0,0,0-.22-.213,2.356,2.356,0,0,0-2,1.14.977.977,0,0,1-.447.4,3.021,3.021,0,0,0-1.567,1.465.216.216,0,0,0,.023.141Zm1.708-1.219a1.4,1.4,0,0,0,.643-.564,1.894,1.894,0,0,1,1.433-.919v1.027a.213.213,0,0,0,.112.188,3.281,3.281,0,0,1,1.139,1.027.213.213,0,0,0,.307.074l1.1-.75a4.288,4.288,0,0,0-.2,1.034,4.438,4.438,0,0,0,.2,1.021l-1.1-.75a.214.214,0,0,0-.306.073,1.488,1.488,0,0,1-.109.167,2.789,2.789,0,0,1-.381.393.213.213,0,0,0-.032.183,2.6,2.6,0,0,0,.3.615,5.442,5.442,0,0,1-1.256.154l-.925-.5-.014-.006a2.906,2.906,0,0,1-2.194-1.354A2.84,2.84,0,0,1,30.841,30.934Z" transform="translate(-25.746 -25.768)" fill="#000000"/>
    <path id="Path_4183" data-name="Path 4183" d="M38.775,46.347a.356.356,0,0,0,0-.711A.356.356,0,0,0,38.775,46.347Z" transform="translate(-33.747 -40.031)" fill="#000000"/>
    <path id="Path_4184" data-name="Path 4184" d="M12.394,30.279A6.156,6.156,0,0,0,11.5,33.5a.213.213,0,0,0,.427,0,5.731,5.731,0,0,1,.832-3,.213.213,0,0,0-.364-.222Z" transform="translate(-10.646 -26.777)" fill="#000000"/>
    <path id="Path_4185" data-name="Path 4185" d="M12.63,59.911a.213.213,0,0,0-.42.078,6.23,6.23,0,0,0,.268.987.213.213,0,0,0,.4-.146,5.788,5.788,0,0,1-.25-.919Z" transform="translate(-11.252 -52.126)" fill="#000000"/>
    <path id="Path_4186" data-name="Path 4186" d="M25.81,72.395c.215,0,.32.114.487.314a.945.945,0,0,0,1.631,0,.535.535,0,0,1,.975,0,.945.945,0,0,0,1.631,0,.535.535,0,0,1,.976,0,1.013,1.013,0,0,0,.816.468.213.213,0,1,0,0-.427c-.215,0-.321-.114-.488-.314a.946.946,0,0,0-1.633,0,.535.535,0,0,1-.975,0,.945.945,0,0,0-1.631,0c-.167.2-.272.314-.488.314s-.32-.114-.487-.314a1.012,1.012,0,0,0-.815-.468.213.213,0,1,0,0,.427Z" transform="translate(-22.737 -62.618)" fill="#000000"/>
  </g>
</svg>
