<svg xmlns="http://www.w3.org/2000/svg" width="60" height="60" viewBox="0 0 26 26">
  <g id="Group_567" data-name="Group 567" transform="translate(-2461 -1528.36)">
    <g id="noun-charity-5706336" transform="translate(2461 1544.342)">
      <path id="Path_4213" data-name="Path 4213" d="M120.364,589.78h2.194a.487.487,0,0,0,.487-.487v-.306c1.124.006,4.989.049,8.352.244.172.01.344.016.517.016a8.969,8.969,0,0,0,4.348-1.128L145,582.925a1.689,1.689,0,0,0,.377-2.671,1.7,1.7,0,0,0-1.895-.341l-5.723,2.61a1.861,1.861,0,0,0-1.83-1.537H133.1a4.829,4.829,0,0,1-1.791-.341c-3.429-1.355-6.805.085-8.274.884a.487.487,0,0,0-.481-.426H120.36a.487.487,0,0,0-.487.487v7.7a.487.487,0,0,0,.487.488Zm2.681-7.127c.884-.54,4.439-2.473,7.91-1.1a5.806,5.806,0,0,0,2.151.41h2.831a.884.884,0,1,1,0,1.768h-6.916a.487.487,0,0,0,0,.975h6.916a1.854,1.854,0,0,0,1.661-1.033l6.3-2.873a.715.715,0,0,1,.627,1.284l-8.739,5.193a7.987,7.987,0,0,1-4.326.988c-3.393-.2-7.286-.237-8.411-.247v-5.362Zm-2.194-.575h1.219V588.8h-1.219v-6.724Z" transform="translate(-119.873 -579.761)" fill="#0dbcd1"/>
    </g>
    <g id="noun-food-bowl-5624541" transform="translate(2397.39 1395.12)">
      <path id="Path_4214" data-name="Path 4214" d="M68.961,577.99l.049.583c.011.194.421,4.791,4.321,6.417l.1.038h5.817l.1-.038c3.9-1.626,4.31-6.222,4.327-6.417l.043-.583Zm10.074,5.958H73.649c-2.458-1.08-3.241-3.705-3.473-4.877H82.513C82.281,580.242,81.5,582.867,79.035,583.948Z" transform="translate(0 -438.344)" fill="#0dbcd1"/>
      <path id="Path_4215" data-name="Path 4215" d="M688.638,133.607l-1.016-.367-2.053,5.617h1.151Z" transform="translate(-607.727)" fill="#0dbcd1"/>
      <path id="Path_4216" data-name="Path 4216" d="M823.389,176.926l3.127-4.44-.88-.621-3.57,5.061Z" transform="translate(-742.257 -38.069)" fill="#0dbcd1"/>
      <path id="Path_4217" data-name="Path 4217" d="M165.449,282.527a1.087,1.087,0,0,1,.513.119l.654.324.124-.718a1.173,1.173,0,0,1,2.328.205h1.08a2.255,2.255,0,0,0-4.289-.972,2.073,2.073,0,0,0-.411-.038A2.256,2.256,0,0,0,163.2,283.7h1.08a1.179,1.179,0,0,1,1.172-1.177Z" transform="translate(-92.879 -144.848)" fill="#0dbcd1"/>
    </g>
  </g>
</svg>
