<svg xmlns="http://www.w3.org/2000/svg" width="60" height="60" viewBox="0 0 26 26">
  <g id="Group_566" data-name="Group 566" transform="translate(-2461 -1528.361)">
    <g id="noun-charity-5706336" transform="translate(2461 1544.342)">
      <path id="Path_4213" data-name="Path 4213" d="M120.364,589.78h2.194a.487.487,0,0,0,.487-.487v-.306c1.124.006,4.989.049,8.352.244.172.01.344.016.517.016a8.969,8.969,0,0,0,4.348-1.128L145,582.925a1.689,1.689,0,0,0,.377-2.671,1.7,1.7,0,0,0-1.895-.341l-5.723,2.61a1.861,1.861,0,0,0-1.83-1.537H133.1a4.829,4.829,0,0,1-1.791-.341c-3.429-1.355-6.805.085-8.274.884a.487.487,0,0,0-.481-.426H120.36a.487.487,0,0,0-.487.487v7.7a.487.487,0,0,0,.487.488Zm2.681-7.127c.884-.54,4.439-2.473,7.91-1.1a5.806,5.806,0,0,0,2.151.41h2.831a.884.884,0,1,1,0,1.768h-6.916a.487.487,0,0,0,0,.975h6.916a1.854,1.854,0,0,0,1.661-1.033l6.3-2.873a.715.715,0,0,1,.627,1.284l-8.739,5.193a7.987,7.987,0,0,1-4.326.988c-3.393-.2-7.286-.237-8.411-.247v-5.362Zm-2.194-.575h1.219V588.8h-1.219v-6.724Z" transform="translate(-119.873 -579.761)" fill="#0dbcd1"/>
    </g>
    <g id="Group_564" data-name="Group 564" transform="translate(2468.381 1528.361)">
      <path id="Path_4210" data-name="Path 4210" d="M973.848,168.341h-.811v-.811a.749.749,0,0,0-1.5,0v.811h-.811a.749.749,0,0,0,0,1.5h.811v.811a.749.749,0,0,0,1.5,0v-.811h.811a.749.749,0,0,0,0-1.5Z" transform="translate(-966.671 -162.369)" fill="#0dbcd1"/>
      <path id="Path_4211" data-name="Path 4211" d="M928.266,100.011h0a6.374,6.374,0,0,1-3.406-1.814,1.429,1.429,0,0,0-1.024-.435h0a1.429,1.429,0,0,0-1.024.435,6.376,6.376,0,0,1-3.406,1.813,1.427,1.427,0,0,0-1.159,1.283,10.556,10.556,0,0,0,4.8,9.673h0a1.417,1.417,0,0,0,1.576,0,10.556,10.556,0,0,0,4.8-9.673,1.427,1.427,0,0,0-1.159-1.283Zm-4.43,9.5a8.769,8.769,0,0,1-3.958-7.912,8.06,8.06,0,0,0,3.959-2.093,8.052,8.052,0,0,0,3.958,2.093A8.77,8.77,0,0,1,923.835,109.51Z" transform="translate(-918.217 -97.762)" fill="#0dbcd1"/>
    </g>
  </g>
</svg>
