<svg xmlns="http://www.w3.org/2000/svg" width="60" height="60" viewBox="0 0 26 26">
  <g id="Group_569" data-name="Group 569" transform="translate(-2461 -1528.36)">
    <g id="noun-charity-5706336" transform="translate(2461 1544.342)">
      <path id="Path_4213" data-name="Path 4213" d="M120.364,589.78h2.194a.487.487,0,0,0,.487-.487v-.306c1.124.006,4.989.049,8.352.244.172.01.344.016.517.016a8.969,8.969,0,0,0,4.348-1.128L145,582.925a1.689,1.689,0,0,0,.377-2.671,1.7,1.7,0,0,0-1.895-.341l-5.723,2.61a1.861,1.861,0,0,0-1.83-1.537H133.1a4.829,4.829,0,0,1-1.791-.341c-3.429-1.355-6.805.085-8.274.884a.487.487,0,0,0-.481-.426H120.36a.487.487,0,0,0-.487.487v7.7a.487.487,0,0,0,.487.488Zm2.681-7.127c.884-.54,4.439-2.473,7.91-1.1a5.806,5.806,0,0,0,2.151.41h2.831a.884.884,0,1,1,0,1.768h-6.916a.487.487,0,0,0,0,.975h6.916a1.854,1.854,0,0,0,1.661-1.033l6.3-2.873a.715.715,0,0,1,.627,1.284l-8.739,5.193a7.987,7.987,0,0,1-4.326.988c-3.393-.2-7.286-.237-8.411-.247v-5.362Zm-2.194-.575h1.219V588.8h-1.219v-6.724Z" transform="translate(-119.873 -579.761)" fill="#0dbcd1"/>
    </g>
    <g id="noun-gift-1253619" transform="translate(2359.336 1468.361)">
      <path id="Path_4221" data-name="Path 4221" d="M587.038,283.043v-2.307h-.6v1.706h-1.769v-2.134h2.873V277.79h-6.348v2.517h2.873v2.134H582.3v-1.706h-.6v2.307h5.344Zm-.1-3.338h-2.271v-1.314h2.271v1.314Zm-5.144,0v-1.314h2.271v1.314Z" transform="translate(-466.425 -215.08)" fill="#0dbcd1"/>
      <path id="Path_4222" data-name="Path 4222" d="M657.294,62.43h2.052a2.883,2.883,0,1,0-2.052,0Zm1.439-.787v-.428a.613.613,0,1,1,.614.614h-.614ZM657.294,60.6a.614.614,0,0,1,.614.614v.614h-.614a.614.614,0,0,1,0-1.228Z" transform="translate(-540.379 0)" fill="#0dbcd1"/>
      <path id="Path_4223" data-name="Path 4223" d="M169.43,393.006a2.04,2.04,0,1,0,1.588.762,2.042,2.042,0,0,0-1.588-.762Zm0,3.479a1.438,1.438,0,1,1,1.439-1.439A1.44,1.44,0,0,1,169.43,396.485Z" transform="translate(-57.774 -328.862)" fill="#0dbcd1"/>
      <path id="Path_4224" data-name="Path 4224" d="M109.49,754.434a1.8,1.8,0,0,1,1.8-1.8h6.859a1.5,1.5,0,0,1-1.5,1.475h-3.086V756.4l-4.074-.067,4.074.526h.6v-2.151h2.484a2.1,2.1,0,0,0,2.1-2.1v-.581h-7.461a2.4,2.4,0,0,0-2.4,2.4v2.431h4.676l-4.074-.526v-1.9Z" transform="translate(0 -683.421)" fill="#0dbcd1"/>
      <path id="Path_4225" data-name="Path 4225" d="M113.952,73.443" fill="#fff"/>
    </g>
  </g>
</svg>
